[gd_scene load_steps=5 format=2]

[ext_resource path="res://Assets/Tilesets/Tileset.tres" type="TileSet" id=1]
[ext_resource path="res://Assets/Tilesets/objects.png" type="Texture" id=2]
[ext_resource path="res://Assets/Background/background.png" type="Texture" id=5]

[sub_resource type="TileSet" id=1]
0/name = "objects.png 0"
0/texture = ExtResource( 2 )
0/tex_offset = Vector2( 0, 0 )
0/modulate = Color( 1, 1, 1, 1 )
0/region = Rect2( 192, 64, 176, 128 )
0/tile_mode = 0
0/occluder_offset = Vector2( 0, 0 )
0/navigation_offset = Vector2( 0, 0 )
0/shape_offset = Vector2( 0, 0 )
0/shape_transform = Transform2D( 1, 0, 0, 1, 0, 0 )
0/shape_one_way = false
0/shape_one_way_margin = 0.0
0/shapes = [  ]
0/z_index = 0
1/name = "objects.png 1"
1/texture = ExtResource( 2 )
1/tex_offset = Vector2( 0, 0 )
1/modulate = Color( 1, 1, 1, 1 )
1/region = Rect2( 608, 64, 176, 128 )
1/tile_mode = 0
1/occluder_offset = Vector2( 0, 0 )
1/navigation_offset = Vector2( 0, 0 )
1/shape_offset = Vector2( 0, 0 )
1/shape_transform = Transform2D( 1, 0, 0, 1, 0, 0 )
1/shape_one_way = false
1/shape_one_way_margin = 0.0
1/shapes = [  ]
1/z_index = 0
2/name = "objects.png 2"
2/texture = ExtResource( 2 )
2/tex_offset = Vector2( 0, 0 )
2/modulate = Color( 1, 1, 1, 1 )
2/region = Rect2( 784, 16, 176, 176 )
2/tile_mode = 0
2/occluder_offset = Vector2( 0, 0 )
2/navigation_offset = Vector2( 0, 0 )
2/shape_offset = Vector2( 0, 0 )
2/shape_transform = Transform2D( 1, 0, 0, 1, 0, 0 )
2/shape_one_way = false
2/shape_one_way_margin = 0.0
2/shapes = [  ]
2/z_index = 0
3/name = "objects.png 3"
3/texture = ExtResource( 2 )
3/tex_offset = Vector2( 0, 0 )
3/modulate = Color( 1, 1, 1, 1 )
3/region = Rect2( 368, 128, 80, 64 )
3/tile_mode = 0
3/occluder_offset = Vector2( 0, 0 )
3/navigation_offset = Vector2( 0, 0 )
3/shape_offset = Vector2( 0, 0 )
3/shape_transform = Transform2D( 1, 0, 0, 1, 0, 0 )
3/shape_one_way = false
3/shape_one_way_margin = 0.0
3/shapes = [  ]
3/z_index = 0
4/name = "objects.png 4"
4/texture = ExtResource( 2 )
4/tex_offset = Vector2( 0, 0 )
4/modulate = Color( 1, 1, 1, 1 )
4/region = Rect2( 480, 160, 32, 32 )
4/tile_mode = 0
4/occluder_offset = Vector2( 0, 0 )
4/navigation_offset = Vector2( 0, 0 )
4/shape_offset = Vector2( 0, 0 )
4/shape_transform = Transform2D( 1, 0, 0, 1, 0, 0 )
4/shape_one_way = false
4/shape_one_way_margin = 0.0
4/shapes = [  ]
4/z_index = 0
5/name = "objects.png 5"
5/texture = ExtResource( 2 )
5/tex_offset = Vector2( 0, 0 )
5/modulate = Color( 1, 1, 1, 1 )
5/region = Rect2( 16, 144, 32, 48 )
5/tile_mode = 0
5/occluder_offset = Vector2( 0, 0 )
5/navigation_offset = Vector2( 0, 0 )
5/shape_offset = Vector2( 0, 0 )
5/shape_transform = Transform2D( 1, 0, 0, 1, 0, 0 )
5/shape_one_way = false
5/shape_one_way_margin = 0.0
5/shapes = [  ]
5/z_index = 0
6/name = "objects.png 6"
6/texture = ExtResource( 2 )
6/tex_offset = Vector2( 0, 0 )
6/modulate = Color( 1, 1, 1, 1 )
6/region = Rect2( 48, 144, 48, 48 )
6/tile_mode = 0
6/occluder_offset = Vector2( 0, 0 )
6/navigation_offset = Vector2( 0, 0 )
6/shape_offset = Vector2( 0, 0 )
6/shape_transform = Transform2D( 1, 0, 0, 1, 0, 0 )
6/shape_one_way = false
6/shape_one_way_margin = 0.0
6/shapes = [  ]
6/z_index = 0
7/name = "objects.png 7"
7/texture = ExtResource( 2 )
7/tex_offset = Vector2( 0, 0 )
7/modulate = Color( 1, 1, 1, 1 )
7/region = Rect2( 96, 144, 48, 48 )
7/tile_mode = 0
7/occluder_offset = Vector2( 0, 0 )
7/navigation_offset = Vector2( 0, 0 )
7/shape_offset = Vector2( 0, 0 )
7/shape_transform = Transform2D( 1, 0, 0, 1, 0, 0 )
7/shape_one_way = false
7/shape_one_way_margin = 0.0
7/shapes = [  ]
7/z_index = 0
8/name = "objects.png 8"
8/texture = ExtResource( 2 )
8/tex_offset = Vector2( 0, 0 )
8/modulate = Color( 1, 1, 1, 1 )
8/region = Rect2( 144, 144, 32, 48 )
8/tile_mode = 0
8/occluder_offset = Vector2( 0, 0 )
8/navigation_offset = Vector2( 0, 0 )
8/shape_offset = Vector2( 0, 0 )
8/shape_transform = Transform2D( 1, 0, 0, 1, 0, 0 )
8/shape_one_way = false
8/shape_one_way_margin = 0.0
8/shapes = [  ]
8/z_index = 0
9/name = "objects.png 9"
9/texture = ExtResource( 2 )
9/tex_offset = Vector2( 0, 0 )
9/modulate = Color( 1, 1, 1, 1 )
9/region = Rect2( 528, 112, 64, 80 )
9/tile_mode = 0
9/occluder_offset = Vector2( 0, 0 )
9/navigation_offset = Vector2( 0, 0 )
9/shape_offset = Vector2( 0, 0 )
9/shape_transform = Transform2D( 1, 0, 0, 1, 0, 0 )
9/shape_one_way = false
9/shape_one_way_margin = 0.0
9/shapes = [  ]
9/z_index = 0

[node name="TileSet" type="Node2D"]

[node name="Sprite" type="Sprite" parent="."]
position = Vector2( 975.64, -228.034 )
scale = Vector2( 8.02993, 7.89979 )
texture = ExtResource( 5 )

[node name="Objects" type="TileMap" parent="."]
tile_set = SubResource( 1 )
cell_size = Vector2( 16, 16 )
collision_layer = 3
collision_mask = 3
format = 1
tile_data = PoolIntArray( -2883517, 6, 0, -2883515, 3, 0, -2752410, 9, 0, -2555851, 7, 0, -2293696, 7, 0, -2293695, 3, 0, -2031534, 7, 0, -2031531, 7, 0, -1900538, 9, 0, -1835006, 3, 0, -1769416, 3, 0, -1703873, 8, 0, -1572836, 9, 0, -1507303, 3, 0, -1376172, 3, 0, -1310638, 8, 0, -1245101, 8, 0, -917403, 7, 0, -917402, 7, 0, -917400, 7, 0, -786317, 6, 0, -720778, 4, 0, -655303, 2, 0, -458672, 0, 0, -393203, 9, 0, -262130, 3, 0, -262081, 9, 0, -196546, 3, 0, -196522, 3, 0, -196473, 7, 0, -131032, 7, 0, -130991, 5, 0, -65502, 4, 0, 196611, 3, 0, 327697, 5, 0, 327703, 6, 0, 327782, 5, 0, 327802, 7, 0 )

[node name="TileMap" type="TileMap" parent="."]
tile_set = ExtResource( 1 )
cell_size = Vector2( 16, 16 )
collision_layer = 3
collision_mask = 3
format = 1
tile_data = PoolIntArray( -5177223, 1, 131073, -5177222, 1, 131073, -5177221, 1, 131073, -5177220, 1, 131073, -5177219, 1, 131073, -5177218, 1, 131073, -5177217, 1, 131073, -5177216, 1, 131073, -5177215, 1, 131073, -5177214, 1, 131073, -5177213, 1, 131073, -5177212, 1, 131073, -5111687, 1, 131073, -5111686, 1, 131073, -5111685, 1, 131073, -5111684, 1, 131073, -5111683, 1, 131073, -5111682, 1, 131073, -5111681, 1, 131073, -5111680, 1, 131073, -5111679, 1, 131073, -5111678, 1, 131073, -5111677, 1, 131073, -5111676, 1, 131073, -5046151, 1, 131073, -5046150, 1, 131073, -5046149, 1, 131073, -5046148, 1, 131073, -5046147, 1, 131073, -5046146, 1, 131073, -5046145, 1, 131073, -5046144, 1, 131073, -5046143, 1, 131073, -5046142, 1, 131073, -5046141, 1, 131073, -5046140, 1, 131073, -4980615, 1, 131073, -4980614, 1, 131073, -4980613, 1, 131073, -4980612, 1, 131073, -4980611, 1, 131073, -4980610, 1, 131073, -4980609, 1, 131073, -4980608, 1, 131073, -4980607, 1, 131073, -4980606, 1, 131073, -4980605, 1, 131073, -4980604, 1, 131073, -4915079, 1, 131073, -4915078, 1, 131073, -4915077, 1, 131073, -4915076, 1, 131073, -4915075, 1, 131073, -4915074, 1, 131073, -4915073, 1, 131073, -4915072, 1, 131073, -4915071, 1, 131073, -4915070, 1, 131073, -4915069, 1, 131073, -4915068, 1, 131073, -4849543, 1, 131073, -4849542, 1, 131073, -4849541, 1, 131073, -4849540, 1, 131073, -4849539, 1, 131073, -4849538, 1, 131073, -4849537, 1, 131073, -4849536, 1, 131073, -4849535, 1, 131073, -4849534, 1, 131073, -4849533, 1, 131073, -4849532, 1, 131073, -4784007, 1, 131073, -4784006, 1, 131073, -4784005, 1, 131073, -4784004, 1, 131073, -4784003, 1, 131073, -4784002, 1, 131073, -4784001, 1, 131073, -4784000, 1, 131073, -4783999, 1, 131073, -4783998, 1, 131073, -4783997, 1, 131073, -4783996, 1, 131073, -4718471, 1, 131073, -4718470, 1, 131073, -4718469, 1, 131073, -4718468, 1, 131073, -4718467, 1, 131073, -4718466, 1, 131073, -4718465, 1, 131073, -4718464, 1, 131073, -4718463, 1, 131073, -4718462, 1, 131073, -4718461, 1, 131073, -4718460, 1, 131073, -4652935, 1, 131073, -4652934, 1, 131073, -4652933, 1, 131073, -4652932, 1, 131073, -4652931, 1, 131073, -4652930, 1, 131073, -4652929, 1, 131073, -4652928, 1, 131073, -4652927, 1, 131073, -4652926, 1, 131073, -4652925, 1, 131073, -4652924, 1, 131073, -4587399, 2, 131072, -4587398, 2, 131072, -4587397, 2, 131072, -4587396, 2, 131072, -4587395, 2, 131072, -4587394, 2, 131072, -4587393, 2, 131072, -4587392, 2, 131072, -4587391, 1, 131073, -4587390, 1, 131073, -4587389, 2, 131072, -4587388, 2, 131072, -4521863, 2, 131072, -4521862, 2, 131072, -4521861, 2, 131072, -4521860, 2, 131072, -4521859, 2, 131072, -4521858, 2, 131072, -4521857, 2, 131072, -4521856, 2, 131072, -4521855, 2, 131072, -4521854, 2, 131072, -4521853, 2, 131072, -4521852, 2, 131072, -4456327, 2, 131072, -4456326, 2, 131072, -4456325, 2, 131072, -4456324, 2, 131072, -4456323, 2, 131072, -4456322, 1, 131073, -4456321, 1, 131073, -4456320, 1, 131073, -4456319, 1, 131073, -4456318, 1, 131073, -4456317, 1, 131073, -4456316, 2, 131072, -4390791, 2, 131072, -4390790, 2, 131072, -4390789, 2, 131072, -4390788, 2, 131072, -4390787, 2, 131072, -4390786, 1, 131073, -4390785, 1, 131073, -4390784, 1, 131073, -4390783, 1, 131073, -4390782, 1, 131073, -4390781, 2, 131072, -4390780, 2, 131072, -4325255, 2, 131072, -4325254, 2, 131072, -4325253, 2, 131072, -4325252, 2, 131072, -4325251, 2, 131072, -4325250, 1, 131073, -4325249, 1, 131073, -4325248, 1, 131073, -4325247, 1, 131073, -4325246, 1, 131073, -4325245, 2, 131072, -4325244, 2, 131072, -4259719, 2, 131072, -4259718, 2, 131072, -4259717, 2, 131072, -4259716, 2, 131072, -4259715, 2, 131072, -4259714, 1, 131073, -4259713, 1, 131073, -4259712, 1, 131073, -4259711, 1, 131073, -4259710, 1, 131073, -4259709, 2, 131072, -4259708, 2, 131072, -4194183, 2, 131072, -4194182, 2, 131072, -4194181, 2, 131072, -4194180, 2, 131072, -4194179, 2, 131072, -4194178, 1, 131073, -4194177, 1, 131073, -4194176, 1, 131073, -4194175, 1, 131073, -4194174, 1, 131073, -4194173, 2, 131072, -4194172, 2, 131072, -4128647, 2, 131072, -4128646, 2, 131072, -4128645, 2, 131072, -4128644, 2, 131072, -4128643, 2, 131072, -4128642, 1, 131073, -4128641, 1, 131073, -4128640, 1, 131073, -4128639, 1, 131073, -4128638, 1, 131073, -4128637, 2, 131072, -4128636, 2, 131072, -4063111, 2, 131072, -4063110, 2, 131072, -4063109, 2, 131072, -4063108, 2, 131072, -4063107, 2, 131072, -4063106, 1, 131073, -4063105, 1, 131073, -4063104, 1, 131073, -4063103, 1, 131073, -4063102, 1, 131073, -4063101, 2, 131072, -4063100, 2, 131072, -3997575, 2, 131072, -3997574, 2, 131072, -3997573, 2, 131072, -3997572, 2, 131072, -3997571, 2, 131072, -3997570, 2, 131072, -3997569, 1, 131073, -3997568, 1, 131073, -3997567, 2, 131072, -3997566, 2, 131072, -3997565, 2, 131072, -3997564, 2, 131072, -3932039, 2, 131072, -3932038, 2, 131072, -3932037, 2, 131072, -3932036, 2, 131072, -3932035, 2, 131072, -3932034, 2, 131072, -3932033, 2, 131072, -3932032, 2, 131072, -3932031, 2, 131072, -3932030, 2, 131072, -3932029, 2, 131072, -3932028, 2, 131072, -3866503, 2, 131072, -3866502, 2, 131072, -3866501, 2, 131072, -3866500, 2, 131072, -3866499, 2, 131072, -3866498, 2, 131072, -3866497, 2, 131072, -3866496, 2, 131072, -3866495, 2, 131072, -3866494, 2, 131072, -3866493, 2, 131072, -3866492, 2, 131072, -3800967, 2, 131072, -3800966, 2, 131072, -3800965, 2, 131072, -3800964, 2, 131072, -3800963, 2, 131072, -3800962, 2, 131072, -3800961, 2, 131072, -3800960, 2, 131072, -3800959, 2, 131072, -3800958, 2, 131072, -3800957, 2, 131072, -3800956, 2, 131072, -3735431, 2, 131072, -3735430, 2, 131072, -3735429, 2, 131072, -3735428, 2, 131072, -3735427, 2, 131072, -3735426, 2, 131072, -3735425, 2, 131072, -3735424, 2, 131072, -3735423, 2, 131072, -3735422, 2, 131072, -3735421, 2, 131072, -3735420, 2, 131072, -3669895, 2, 131072, -3669894, 2, 131072, -3669893, 2, 131072, -3669892, 2, 131072, -3669891, 2, 131072, -3669890, 2, 131072, -3669889, 2, 131072, -3669888, 2, 131072, -3669887, 2, 131072, -3669886, 2, 131072, -3669885, 2, 131072, -3669884, 2, 131072, -3604359, 2, 131072, -3604358, 2, 131072, -3604357, 1, 131073, -3604356, 1, 131073, -3604355, 1, 131073, -3604354, 1, 131073, -3604353, 2, 131072, -3604352, 1, 131073, -3604351, 1, 131073, -3604350, 1, 131073, -3604349, 1, 131073, -3604348, 1, 131073, -3538837, 2, 131072, -3538836, 2, 131072, -3538835, 2, 131072, -3538834, 2, 131072, -3538833, 2, 131072, -3538832, 2, 131072, -3538831, 2, 131072, -3538830, 2, 131072, -3538829, 2, 131072, -3538828, 2, 131072, -3538827, 2, 131072, -3538826, 2, 131072, -3538825, 2, 131072, -3538824, 2, 131072, -3538823, 2, 131072, -3538822, 1, 131073, -3538821, 1, 131073, -3538820, 1, 131073, -3538819, 1, 131073, -3538818, 1, 131073, -3538817, 1, 131073, -3538816, 1, 131073, -3538815, 1, 131073, -3538814, 1, 131073, -3538813, 1, 131073, -3538812, 1, 131073, -3473301, 2, 131072, -3473300, 2, 131072, -3473299, 2, 131072, -3473298, 2, 131072, -3473297, 2, 131072, -3473296, 2, 131072, -3473295, 2, 131072, -3473294, 2, 131072, -3473293, 2, 131072, -3473292, 2, 131072, -3473291, 2, 131072, -3473290, 2, 131072, -3473289, 2, 131072, -3473288, 2, 131072, -3473287, 2, 131072, -3473286, 1, 131073, -3473285, 1, 131073, -3473284, 1, 131073, -3473283, 1, 131073, -3473282, 1, 131073, -3473281, 1, 131073, -3473280, 1, 131073, -3473279, 1, 131073, -3473278, 1, 131073, -3473277, 1, 131073, -3473276, 1, 131073, -3407765, 2, 131072, -3407764, 2, 131072, -3407763, 2, 131072, -3407762, 2, 131072, -3407761, 2, 131072, -3407760, 2, 131072, -3407759, 2, 131072, -3407758, 2, 131072, -3407757, 2, 131072, -3407756, 2, 131072, -3407755, 2, 131072, -3407754, 2, 131072, -3407753, 2, 131072, -3407752, 2, 131072, -3407751, 2, 131072, -3407750, 1, 131073, -3407749, 1, 131073, -3407748, 1, 131073, -3407747, 1, 131073, -3407746, 1, 131073, -3407745, 1, 131073, -3407744, 1, 131073, -3407743, 1, 131073, -3407742, 1, 131073, -3407741, 1, 131073, -3407740, 1, 131073, -3342229, 2, 131072, -3342228, 2, 131072, -3342227, 2, 131072, -3342226, 2, 131072, -3342225, 2, 131072, -3342224, 2, 131072, -3342223, 2, 131072, -3342222, 2, 131072, -3342221, 2, 131072, -3342220, 2, 131072, -3342219, 2, 131072, -3342218, 2, 131072, -3342217, 2, 131072, -3342216, 2, 131072, -3342215, 2, 131072, -3342214, 2, 131072, -3342213, 1, 131073, -3342212, 1, 131073, -3342211, 1, 131073, -3342210, 1, 131073, -3342209, 1, 131073, -3342208, 1, 131073, -3342207, 1, 131073, -3342206, 1, 131073, -3342205, 1, 131073, -3342204, 1, 131073, -3276693, 2, 131072, -3276692, 2, 131072, -3276691, 2, 131072, -3276690, 2, 131072, -3276689, 2, 131072, -3276688, 2, 131072, -3276687, 2, 131072, -3276686, 2, 131072, -3276685, 2, 131072, -3276684, 2, 131072, -3276683, 2, 131072, -3276682, 2, 131072, -3276681, 2, 131072, -3276680, 2, 131072, -3276679, 1, 131073, -3276678, 2, 131072, -3276677, 2, 131072, -3276676, 1, 131073, -3276675, 1, 131073, -3276674, 1, 131073, -3276673, 1, 131073, -3276672, 1, 131073, -3276671, 1, 131073, -3276670, 1, 131073, -3276669, 1, 131073, -3276668, 1, 131073, -3211157, 2, 131072, -3211156, 2, 131072, -3211155, 2, 131072, -3211154, 2, 131072, -3211153, 2, 131072, -3211152, 2, 131072, -3211151, 2, 131072, -3211150, 2, 131072, -3211149, 2, 131072, -3211148, 2, 131072, -3211147, 2, 131072, -3211146, 2, 131072, -3211145, 2, 131072, -3211144, 2, 131072, -3211143, 2, 131072, -3211142, 2, 131072, -3211141, 2, 131072, -3211140, 1, 131073, -3211139, 1, 131073, -3211138, 1, 131073, -3211137, 1, 131073, -3211136, 1, 131073, -3211135, 1, 131073, -3211134, 1, 131073, -3211133, 1, 131073, -3211132, 1, 131073, -3145621, 2, 131072, -3145620, 2, 131072, -3145619, 2, 131072, -3145618, 2, 131072, -3145617, 2, 131072, -3145616, 2, 131072, -3145615, 2, 131072, -3145614, 2, 131072, -3145613, 2, 131072, -3145612, 2, 131072, -3145611, 2, 131072, -3145610, 2, 131072, -3145609, 2, 131072, -3145608, 2, 131072, -3145607, 1, 131073, -3145606, 2, 131072, -3145605, 2, 131072, -3145604, 2, 131072, -3145603, 1, 131073, -3145602, 1, 131073, -3145601, 1, 131073, -3145600, 1, 131073, -3145599, 1, 131073, -3145598, 1, 131073, -3145597, 1, 131073, -3145596, 1, 131073, -3080085, 2, 131072, -3080084, 2, 131072, -3080083, 2, 131072, -3080082, 2, 131072, -3080081, 2, 131072, -3080080, 2, 131072, -3080079, 2, 131072, -3080078, 2, 131072, -3080077, 2, 131072, -3080076, 2, 131072, -3080075, 2, 131072, -3080074, 2, 131072, -3080073, 2, 131072, -3080072, 2, 131072, -3080071, 2, 131072, -3080070, 2, 131072, -3080069, 2, 131072, -3080068, 2, 131072, -3080067, 2, 131072, -3080066, 1, 131073, -3080065, 1, 131073, -3080064, 1, 131073, -3080063, 1, 131073, -3080062, 1, 131073, -3080061, 1, 131073, -3080060, 1, 131073, -2949138, 2, 131072, -2949137, 2, 131072, -2949136, 2, 131072, -2949135, 2, 131072, -2949134, 2, 131072, -2949133, 2, 131072, -2949132, 2, 131072, -2949131, 2, 131072, -2949130, 2, 131072, -2949129, 2, 131072, -2949128, 2, 131072, -2949127, 2, 131072, -2949126, 2, 131072, -2949125, 2, 131072, -2949124, 2, 131072, -2949123, 2, 131072, -2949122, 2, 131072, -2949121, 2, 131072, -3014549, 2, 131072, -3014548, 2, 131072, -3014547, 2, 131072, -3014546, 2, 131072, -3014545, 2, 131072, -3014544, 2, 131072, -3014543, 2, 131072, -3014542, 2, 131072, -3014541, 2, 131072, -3014540, 2, 131072, -3014539, 2, 131072, -3014538, 2, 131072, -3014537, 2, 131072, -3014536, 2, 131072, -3014535, 1, 131073, -3014534, 2, 131072, -3014533, 2, 131072, -3014532, 2, 131072, -3014531, 2, 131072, -3014530, 1, 131073, -3014529, 1, 131073, -3014528, 1, 131073, -3014527, 1, 131073, -3014526, 1, 131073, -3014525, 1, 131073, -3014524, 1, 131073, -2883602, 2, 131072, -2883601, 2, 131072, -2883600, 2, 131072, -2883599, 2, 131072, -2883598, 2, 131072, -2883597, 2, 131072, -2883596, 2, 131072, -2883595, 2, 131072, -2883594, 2, 131072, -2883593, 2, 131072, -2883592, 2, 131072, -2883591, 2, 131072, -2883590, 2, 131072, -2883589, 2, 131072, -2883588, 2, 131072, -2883587, 2, 131072, -2883586, 2, 131072, -2883585, 2, 131072, -2949013, 2, 131072, -2949012, 2, 131072, -2949011, 2, 131072, -2949010, 2, 131072, -2949009, 2, 131072, -2949008, 2, 131072, -2949007, 2, 131072, -2949006, 2, 131072, -2949005, 2, 131072, -2949004, 2, 131072, -2949003, 2, 131072, -2949002, 2, 131072, -2949001, 2, 131072, -2949000, 2, 131072, -2948999, 2, 131072, -2948998, 2, 131072, -2948997, 2, 131072, -2948996, 1, 131073, -2948995, 2, 131072, -2948994, 1, 131073, -2948993, 1, 131073, -2948992, 1, 131073, -2948991, 1, 131073, -2948990, 1, 131073, -2948989, 1, 131073, -2948988, 1, 131073, -2818066, 2, 131072, -2818065, 2, 131072, -2818064, 2, 131072, -2818063, 2, 131072, -2818062, 2, 131072, -2818061, 2, 131072, -2818060, 2, 131072, -2818059, 2, 131072, -2818058, 2, 131072, -2818057, 2, 131072, -2818056, 2, 131072, -2818055, 2, 131072, -2818054, 2, 131072, -2818053, 2, 131072, -2818052, 2, 131072, -2818051, 2, 131072, -2818050, 2, 131072, -2818049, 2, 131072, -2883507, 3, 65536, -2883506, 3, 65536, -2883505, 3, 65536, -2883504, 3, 65536, -2883503, 3, 65536, -2883502, 3, 65536, -2883501, 3, 65536, -2883500, 3, 65536, -2883499, 3, 65536, -2883498, 3, 65536, -2883477, 2, 131072, -2883476, 2, 131072, -2883475, 2, 131072, -2883474, 2, 131072, -2883473, 2, 131072, -2883472, 2, 131072, -2883471, 2, 131072, -2883470, 2, 131072, -2883469, 2, 131072, -2883468, 2, 131072, -2883467, 2, 131072, -2883466, 2, 131072, -2883465, 2, 131072, -2883464, 2, 131072, -2883463, 2, 131072, -2883462, 2, 131072, -2883461, 1, 131073, -2883460, 2, 131072, -2883459, 2, 131072, -2883458, 1, 131073, -2883457, 1, 131073, -2883456, 1, 131073, -2883455, 1, 131073, -2883454, 1, 131073, -2883453, 1, 131073, -2883452, 1, 131073, -2752530, 2, 131072, -2752529, 2, 131072, -2752528, 2, 131072, -2752527, 2, 131072, -2752526, 2, 131072, -2752525, 2, 131072, -2752524, 2, 131072, -2752523, 2, 131072, -2752522, 2, 131072, -2752521, 2, 131072, -2752520, 2, 131072, -2752519, 2, 131072, -2752518, 2, 131072, -2752517, 2, 131072, -2752516, 2, 131072, -2752515, 2, 131072, -2752514, 2, 131072, -2752513, 2, 131072, -2817972, 3, 65536, -2817971, 3, 131072, -2817970, 3, 131072, -2817969, 3, 131072, -2817968, 3, 131072, -2817967, 3, 131072, -2817966, 3, 131072, -2817965, 3, 131072, -2817964, 3, 131072, -2817963, 3, 131072, -2817962, 3, 131072, -2817941, 2, 131072, -2817940, 2, 131072, -2817939, 2, 131072, -2817938, 2, 131072, -2817937, 2, 131072, -2817936, 2, 131072, -2817935, 2, 131072, -2817934, 2, 131072, -2817933, 2, 131072, -2817932, 2, 131072, -2817931, 2, 131072, -2817930, 2, 131072, -2817929, 2, 131072, -2817928, 2, 131072, -2817927, 2, 131072, -2817926, 2, 131072, -2817925, 2, 131072, -2817924, 1, 131073, -2817923, 1, 131073, -2817922, 1, 131073, -2817921, 1, 131073, -2817920, 1, 131073, -2817919, 1, 131073, -2817918, 1, 131073, -2817917, 1, 131073, -2817916, 1, 131073, -2686994, 2, 131072, -2686993, 2, 131072, -2686992, 2, 131072, -2686991, 2, 131072, -2686990, 2, 131072, -2686989, 2, 131072, -2686988, 2, 131072, -2686987, 2, 131072, -2686986, 2, 131072, -2686985, 2, 131072, -2686984, 2, 131072, -2686983, 2, 131072, -2686982, 2, 131072, -2686981, 2, 131072, -2686980, 2, 131072, -2686979, 2, 131072, -2686978, 2, 131072, -2686977, 2, 131072, -2752437, 3, 65536, -2752436, 3, 131072, -2752435, 2, 131072, -2752434, 2, 131072, -2752433, 2, 131072, -2752432, 2, 131072, -2752431, 2, 131072, -2752430, 2, 131072, -2752429, 2, 131072, -2752405, 2, 131072, -2752404, 2, 131072, -2752403, 2, 131072, -2752402, 2, 131072, -2752401, 2, 131072, -2752400, 2, 131072, -2752399, 2, 131072, -2752398, 2, 131072, -2752397, 2, 131072, -2752396, 2, 131072, -2752395, 2, 131072, -2752394, 2, 131072, -2752393, 2, 131072, -2752392, 2, 131072, -2752391, 2, 131072, -2752390, 1, 131073, -2752389, 1, 131073, -2752388, 1, 131073, -2752387, 1, 131073, -2752386, 1, 131073, -2752385, 1, 131073, -2752384, 1, 131073, -2752383, 1, 131073, -2752382, 1, 131073, -2752381, 1, 131073, -2752380, 1, 131073, -2621458, 2, 131072, -2621457, 2, 131072, -2621456, 2, 131072, -2621455, 2, 131072, -2621454, 2, 131072, -2621453, 2, 131072, -2621452, 2, 131072, -2621451, 2, 131072, -2621450, 2, 131072, -2621449, 2, 131072, -2621448, 2, 131072, -2621447, 2, 131072, -2621446, 2, 131072, -2621445, 2, 131072, -2621444, 2, 131072, -2621443, 2, 131072, -2621442, 2, 131072, -2621441, 2, 131072, -2686911, 3, 65536, -2686910, 3, 65536, -2686909, 3, 65536, -2686908, 3, 65536, -2686907, 3, 65536, -2686906, 3, 65536, -2686905, 3, 65536, -2686904, 3, 65536, -2686903, 3, 65536, -2686902, 3, 65536, -2686901, 3, 131072, -2686900, 2, 131072, -2686869, 2, 131072, -2686868, 2, 131072, -2686867, 2, 131072, -2686866, 2, 131072, -2686865, 2, 131072, -2686864, 2, 131072, -2686863, 2, 131072, -2686862, 2, 131072, -2686861, 2, 131072, -2686860, 2, 131072, -2686859, 2, 131072, -2686858, 2, 131072, -2686857, 2, 131072, -2686856, 2, 131072, -2686855, 2, 131072, -2686854, 1, 131073, -2686853, 1, 131073, -2686852, 1, 131073, -2686851, 1, 131073, -2686850, 1, 131073, -2686849, 1, 131073, -2686848, 1, 131073, -2686847, 1, 131073, -2686846, 1, 131073, -2686845, 1, 131073, -2686844, 1, 131073, -2555922, 2, 131072, -2555921, 2, 131072, -2555920, 2, 131072, -2555919, 2, 131072, -2555918, 2, 131072, -2555917, 2, 131072, -2555916, 2, 131072, -2555915, 2, 131072, -2555914, 2, 131072, -2555913, 2, 131072, -2555912, 2, 131072, -2555911, 2, 131072, -2555910, 2, 131072, -2555909, 2, 131072, -2555908, 2, 131072, -2555907, 2, 131072, -2555906, 2, 131072, -2555905, 2, 131072, -2621376, 3, 65536, -2621375, 3, 131072, -2621374, 3, 131072, -2621373, 3, 131072, -2621372, 3, 131072, -2621371, 3, 131072, -2621370, 3, 131072, -2621369, 3, 131072, -2621368, 3, 131072, -2621367, 3, 131072, -2621366, 3, 131072, -2621365, 2, 131072, -2621333, 2, 131072, -2621332, 2, 131072, -2621331, 2, 131072, -2621330, 2, 131072, -2621329, 2, 131072, -2621328, 2, 131072, -2621327, 2, 131072, -2621326, 2, 131072, -2621325, 2, 131072, -2621324, 2, 131072, -2621323, 2, 131072, -2621322, 2, 131072, -2621321, 2, 131072, -2621320, 2, 131072, -2621319, 2, 131072, -2621318, 1, 131073, -2621317, 1, 131073, -2621316, 1, 131073, -2621315, 1, 131073, -2621314, 1, 131073, -2621313, 1, 131073, -2621312, 1, 131073, -2621311, 1, 131073, -2621310, 1, 131073, -2621309, 1, 131073, -2621308, 1, 131073, -2490386, 2, 131072, -2490385, 2, 131072, -2490384, 2, 131072, -2490383, 2, 131072, -2490382, 2, 131072, -2490381, 2, 131072, -2490380, 2, 131072, -2490379, 2, 131072, -2490378, 2, 131072, -2490377, 2, 131072, -2490376, 2, 131072, -2490375, 2, 131072, -2490374, 2, 131072, -2490373, 2, 131072, -2490372, 2, 131072, -2490371, 2, 131072, -2490370, 2, 131072, -2490369, 2, 131072, -2555841, 3, 65536, -2555840, 3, 131072, -2555839, 2, 131072, -2555838, 2, 131072, -2555837, 2, 131072, -2555836, 2, 131072, -2555835, 2, 131072, -2555834, 2, 131072, -2555833, 2, 131072, -2555832, 2, 131072, -2555831, 2, 131072, -2555830, 2, 131072, -2555797, 1, 131073, -2555796, 1, 131073, -2555795, 1, 131073, -2555794, 1, 131073, -2555793, 1, 131073, -2555792, 1, 131073, -2555791, 1, 131073, -2555790, 1, 131073, -2555789, 1, 131073, -2555788, 1, 131073, -2555787, 1, 131073, -2555786, 1, 131073, -2555785, 1, 131073, -2555784, 1, 131073, -2555783, 1, 131073, -2555782, 1, 131073, -2555781, 1, 131073, -2555780, 1, 131073, -2555779, 1, 131073, -2555778, 1, 131073, -2555777, 1, 131073, -2555776, 1, 131073, -2555775, 1, 131073, -2555774, 1, 131073, -2555773, 1, 131073, -2555772, 1, 131073, -2424850, 2, 131072, -2424849, 2, 131072, -2424848, 2, 131072, -2424847, 2, 131072, -2424846, 2, 131072, -2424845, 2, 131072, -2424844, 2, 131072, -2424843, 2, 131072, -2424842, 2, 131072, -2424841, 2, 131072, -2424840, 2, 131072, -2424839, 2, 131072, -2424838, 2, 131072, -2424837, 2, 131072, -2424836, 2, 131072, -2424835, 2, 131072, -2424834, 2, 131072, -2424833, 2, 131072, -2490305, 3, 131072, -2490304, 2, 131072, -2490282, 3, 65536, -2490281, 3, 65536, -2490280, 3, 65536, -2490279, 3, 65536, -2490278, 3, 65536, -2490277, 3, 65536, -2490276, 3, 65536, -2490275, 3, 65536, -2490274, 3, 65536, -2490273, 3, 65536, -2490272, 3, 65536, -2490271, 3, 65536, -2490270, 3, 65536, -2490269, 3, 65536, -2490268, 3, 65536, -2490267, 3, 65536, -2490266, 3, 65536, -2490265, 3, 65536, -2490264, 3, 65536, -2490263, 3, 65536, -2490262, 3, 65536, -2490261, 1, 131073, -2490260, 1, 131073, -2490259, 1, 131073, -2490258, 1, 131073, -2490257, 1, 131073, -2490256, 1, 131073, -2490255, 1, 131073, -2490254, 1, 131073, -2490253, 1, 131073, -2490252, 1, 131073, -2490251, 1, 131073, -2490250, 1, 131073, -2490249, 1, 131073, -2490248, 1, 131073, -2490247, 1, 131073, -2490246, 1, 131073, -2490245, 1, 131073, -2490244, 1, 131073, -2490243, 1, 131073, -2490242, 1, 131073, -2490241, 1, 131073, -2490240, 1, 131073, -2490239, 1, 131073, -2490238, 1, 131073, -2490237, 1, 131073, -2490236, 1, 131073, -2359314, 2, 131072, -2359313, 2, 131072, -2359312, 2, 131072, -2359311, 2, 131072, -2359310, 2, 131072, -2359309, 2, 131072, -2359308, 2, 131072, -2359307, 2, 131072, -2359306, 2, 131072, -2359305, 2, 131072, -2359304, 2, 131072, -2359303, 2, 131072, -2359302, 2, 131072, -2359301, 2, 131072, -2359300, 2, 131072, -2359299, 2, 131072, -2359298, 2, 131072, -2359297, 2, 131072, -2424780, 3, 65536, -2424779, 3, 65536, -2424778, 3, 65536, -2424777, 3, 65536, -2424776, 3, 65536, -2424775, 3, 65536, -2424774, 3, 65536, -2424747, 3, 65536, -2424746, 3, 131072, -2424745, 3, 131072, -2424744, 3, 131072, -2424743, 3, 131072, -2424742, 3, 131072, -2424741, 3, 131072, -2424740, 3, 131072, -2424739, 3, 131072, -2424738, 3, 131072, -2424737, 3, 131072, -2424736, 3, 131072, -2424735, 3, 131072, -2424734, 3, 131072, -2424733, 3, 131072, -2424732, 3, 131072, -2424731, 3, 131072, -2424730, 3, 131072, -2424729, 3, 131072, -2424728, 3, 131072, -2424727, 3, 131072, -2424726, 3, 131072, -2293778, 2, 131072, -2293777, 2, 131072, -2293776, 2, 131072, -2293775, 2, 131072, -2293774, 2, 131072, -2293773, 2, 131072, -2293772, 2, 131072, -2293771, 2, 131072, -2293770, 2, 131072, -2293769, 2, 131072, -2293768, 2, 131072, -2293767, 2, 131072, -2293766, 2, 131072, -2293765, 2, 131072, -2293764, 2, 131072, -2293763, 2, 131072, -2293762, 2, 131072, -2293761, 2, 131072, -2359244, 3, 131072, -2359243, 3, 131072, -2359242, 3, 131072, -2359241, 3, 131072, -2359240, 3, 131072, -2359239, 3, 131072, -2359238, 3, 131072, -2359237, 3, 65536, -2359217, 3, 65536, -2359216, 3, 65536, -2359215, 3, 65536, -2359214, 3, 65536, -2359213, 3, 65536, -2359212, 3, 65536, -2359211, 3, 131072, -2359210, 2, 131072, -2359209, 2, 131072, -2359208, 2, 131072, -2359207, 2, 131072, -2359206, 2, 131072, -2359205, 2, 131072, -2359204, 2, 131072, -2359203, 2, 131072, -2359202, 2, 131072, -2359201, 2, 131072, -2359200, 2, 131072, -2359199, 2, 131072, -2359198, 2, 131072, -2359197, 2, 131072, -2359196, 2, 131072, -2359195, 2, 131072, -2359194, 2, 131072, -2359193, 2, 131072, -2359192, 2, 131072, -2359191, 2, 131072, -2359190, 2, 131072, -2228242, 2, 131072, -2228241, 2, 131072, -2228240, 2, 131072, -2228239, 2, 131072, -2228238, 2, 131072, -2228237, 2, 131072, -2228236, 2, 131072, -2228235, 2, 131072, -2228234, 2, 131072, -2228233, 2, 131072, -2228232, 2, 131072, -2228231, 2, 131072, -2228230, 2, 131072, -2228229, 2, 131072, -2228228, 2, 131072, -2228227, 2, 131072, -2228226, 2, 131072, -2228225, 2, 131072, -2293708, 2, 131072, -2293707, 2, 131072, -2293706, 2, 131072, -2293705, 2, 131072, -2293704, 2, 131072, -2293703, 2, 131072, -2293702, 2, 131072, -2293701, 3, 131072, -2293700, 3, 65536, -2293681, 3, 131072, -2293680, 3, 131072, -2293679, 3, 131072, -2293678, 3, 131072, -2293677, 3, 131072, -2293676, 3, 131072, -2293675, 2, 131072, -2162706, 2, 131072, -2162705, 2, 131072, -2162704, 2, 131072, -2162703, 2, 131072, -2162702, 2, 131072, -2162701, 2, 131072, -2162700, 2, 131072, -2162699, 2, 131072, -2162698, 2, 131072, -2162697, 2, 131072, -2162696, 2, 131072, -2162695, 2, 131072, -2162694, 2, 131072, -2162693, 2, 131072, -2162692, 2, 131072, -2162691, 2, 131072, -2162690, 2, 131072, -2162689, 2, 131072, -2228145, 2, 131072, -2228144, 2, 131072, -2228143, 2, 131072, -2228142, 2, 131072, -2228141, 2, 131072, -2228140, 2, 131072, -2097170, 2, 131072, -2097169, 2, 131072, -2097168, 2, 131072, -2097167, 2, 131072, -2097166, 2, 131072, -2097165, 2, 131072, -2097164, 2, 131072, -2097163, 2, 131072, -2097162, 2, 131072, -2097161, 2, 131072, -2097160, 2, 131072, -2097159, 2, 131072, -2097158, 2, 131072, -2097157, 2, 131072, -2097156, 2, 131072, -2097155, 2, 131072, -2097154, 2, 131072, -2097153, 2, 131072, -2031634, 2, 131072, -2031633, 2, 131072, -2031632, 2, 131072, -2031631, 2, 131072, -2031630, 2, 131072, -2031629, 2, 131072, -2031628, 2, 131072, -2031627, 2, 131072, -2031626, 2, 131072, -2031625, 2, 131072, -2031624, 2, 131072, -2031623, 2, 131072, -2031622, 2, 131072, -2031621, 2, 131072, -2031620, 2, 131072, -2031619, 2, 131072, -2031618, 2, 131072, -2031617, 2, 131072, -2097092, 3, 65536, -2097091, 3, 65536, -2097090, 3, 65536, -2097089, 3, 65536, -2097088, 3, 65536, -2097087, 3, 65536, -2097086, 3, 65536, -2097085, 3, 65536, -2097084, 3, 65536, -2097083, 3, 65536, -2097082, 3, 65536, -2097081, 3, 65536, -2097080, 3, 65536, -2097079, 3, 65536, -2097078, 3, 65536, -2097012, 1, 131073, -1966098, 2, 131072, -1966097, 2, 131072, -1966096, 2, 131072, -1966095, 2, 131072, -1966094, 2, 131072, -1966093, 2, 131072, -1966092, 2, 131072, -1966091, 2, 131072, -1966090, 2, 131072, -1966089, 2, 131072, -1966088, 2, 131072, -1966087, 2, 131072, -1966086, 2, 131072, -1966085, 2, 131072, -1966084, 2, 131072, -1966083, 2, 131072, -1966082, 2, 131072, -1966081, 2, 131072, -2031556, 3, 131072, -2031555, 3, 131072, -2031554, 3, 131072, -2031553, 3, 131072, -2031552, 3, 131072, -2031551, 3, 131072, -2031550, 3, 131072, -2031549, 3, 131072, -2031548, 3, 131072, -2031547, 3, 131072, -2031546, 3, 131072, -2031545, 3, 131072, -2031544, 3, 131072, -2031543, 3, 131072, -2031542, 3, 131072, -2031541, 3, 65536, -2031476, 1, 131073, -1900562, 2, 131072, -1900561, 2, 131072, -1900560, 2, 131072, -1900559, 2, 131072, -1900558, 2, 131072, -1900557, 2, 131072, -1900556, 2, 131072, -1900555, 2, 131072, -1900554, 2, 131072, -1900553, 2, 131072, -1900552, 2, 131072, -1900551, 2, 131072, -1900550, 2, 131072, -1900549, 2, 131072, -1900548, 2, 131072, -1900547, 2, 131072, -1900546, 2, 131072, -1900545, 2, 131072, -1966005, 3, 131072, -1966004, 3, 65536, -1965940, 1, 131073, -1835026, 2, 131072, -1835025, 2, 131072, -1835024, 2, 131072, -1835023, 2, 131072, -1835022, 2, 131072, -1835021, 2, 131072, -1835020, 2, 131072, -1835019, 2, 131072, -1835018, 2, 131072, -1835017, 2, 131072, -1835016, 2, 131072, -1835015, 2, 131072, -1835014, 2, 131072, -1835013, 2, 131072, -1835012, 2, 131072, -1835011, 2, 131072, -1835010, 2, 131072, -1835009, 2, 131072, -1900463, 3, 65536, -1900462, 3, 65536, -1900461, 3, 65536, -1900460, 3, 65536, -1900459, 3, 65536, -1900458, 3, 65536, -1900457, 3, 65536, -1900456, 3, 65536, -1900455, 3, 65536, -1900454, 3, 65536, -1900453, 3, 65536, -1900404, 1, 131073, -1769490, 2, 131072, -1769489, 2, 131072, -1769488, 2, 131072, -1769487, 2, 131072, -1769486, 2, 131072, -1769485, 2, 131072, -1769484, 2, 131072, -1769483, 2, 131072, -1769482, 2, 131072, -1769481, 2, 131072, -1769480, 2, 131072, -1769479, 2, 131072, -1769478, 2, 131072, -1769477, 2, 131072, -1769476, 2, 131072, -1769475, 2, 131072, -1769474, 2, 131072, -1769473, 2, 131072, -1834928, 3, 65536, -1834927, 3, 131072, -1834926, 3, 131072, -1834925, 3, 131072, -1834924, 3, 131072, -1834923, 3, 131072, -1834922, 3, 131072, -1834921, 3, 131072, -1834920, 3, 131072, -1834919, 3, 131072, -1834918, 3, 131072, -1834917, 3, 131072, -1834868, 1, 131073, -1703954, 2, 131072, -1703953, 2, 131072, -1703952, 2, 131072, -1703951, 2, 131072, -1703950, 2, 131072, -1703949, 2, 131072, -1703948, 2, 131072, -1703947, 2, 131072, -1703946, 2, 131072, -1703945, 2, 131072, -1703944, 2, 131072, -1703943, 2, 131072, -1703942, 2, 131072, -1703941, 2, 131072, -1703940, 2, 131072, -1703939, 2, 131072, -1703938, 2, 131072, -1703937, 2, 131072, -1769393, 3, 65536, -1769392, 3, 131072, -1769391, 2, 131072, -1769390, 2, 131072, -1769389, 2, 131072, -1769388, 2, 131072, -1769387, 2, 131072, -1769386, 2, 131072, -1769385, 2, 131072, -1769384, 2, 131072, -1769383, 2, 131072, -1769382, 2, 131072, -1769381, 2, 131072, -1769332, 1, 131073, -1638418, 2, 131072, -1638417, 2, 131072, -1638416, 2, 131072, -1638415, 2, 131072, -1638414, 2, 131072, -1638413, 2, 131072, -1638412, 2, 131072, -1638411, 2, 131072, -1638410, 2, 131072, -1638409, 2, 131072, -1638408, 2, 131072, -1638407, 2, 131072, -1638406, 2, 131072, -1638405, 2, 131072, -1638404, 2, 131072, -1638403, 2, 131072, -1638402, 2, 131072, -1638401, 2, 131072, -1703858, 3, 65536, -1703857, 3, 131072, -1703856, 2, 131072, -1703796, 1, 131073, -1572882, 2, 131072, -1572881, 2, 131072, -1572880, 2, 131072, -1572879, 2, 131072, -1572878, 2, 131072, -1572877, 2, 131072, -1572876, 2, 131072, -1572875, 2, 131072, -1572874, 2, 131072, -1572873, 2, 131072, -1572872, 2, 131072, -1572871, 2, 131072, -1572870, 2, 131072, -1572869, 2, 131072, -1572868, 2, 131072, -1572867, 2, 131072, -1572866, 2, 131072, -1572865, 2, 131072, -1638400, 3, 65536, -1638399, 3, 65536, -1638398, 3, 65536, -1638397, 3, 65536, -1638396, 3, 65536, -1638395, 3, 65536, -1638394, 3, 65536, -1638393, 3, 65536, -1638392, 3, 65536, -1638391, 3, 65536, -1638390, 3, 65536, -1638389, 3, 65536, -1638388, 3, 65536, -1638387, 3, 65536, -1638386, 3, 65536, -1638385, 3, 65536, -1638384, 3, 65536, -1638383, 3, 65536, -1638322, 3, 131072, -1638321, 2, 131072, -1638260, 1, 131073, -1507346, 2, 131072, -1507345, 2, 131072, -1507344, 2, 131072, -1507343, 2, 131072, -1507342, 2, 131072, -1507341, 2, 131072, -1507340, 2, 131072, -1507339, 2, 131072, -1507338, 2, 131072, -1507337, 2, 131072, -1507336, 2, 131072, -1507335, 2, 131072, -1507334, 2, 131072, -1507333, 2, 131072, -1507332, 2, 131072, -1507331, 2, 131072, -1507330, 2, 131072, -1507329, 2, 131072, -1572864, 3, 131072, -1572863, 3, 131072, -1572862, 3, 131072, -1572861, 3, 131072, -1572860, 3, 131072, -1572859, 3, 131072, -1572858, 3, 131072, -1572857, 3, 131072, -1572856, 3, 131072, -1572855, 3, 131072, -1572854, 3, 131072, -1572853, 3, 131072, -1572852, 3, 131072, -1572851, 3, 131072, -1572850, 3, 131072, -1572849, 3, 131072, -1572848, 3, 131072, -1572847, 3, 131072, -1572814, 3, 65536, -1572813, 3, 65536, -1572812, 3, 65536, -1572811, 3, 65536, -1572810, 3, 65536, -1572809, 3, 65536, -1572808, 3, 65536, -1572807, 3, 65536, -1572806, 3, 65536, -1572805, 3, 65536, -1572804, 3, 65536, -1572803, 3, 65536, -1572802, 3, 65536, -1572801, 3, 65536, -1572800, 3, 65536, -1572799, 3, 65536, -1572798, 3, 65536, -1572797, 3, 65536, -1572796, 3, 65536, -1572795, 3, 65536, -1572794, 3, 65536, -1572793, 3, 65536, -1572792, 3, 65536, -1572791, 3, 65536, -1572724, 1, 131073, -1441810, 2, 131072, -1441809, 2, 131072, -1441808, 2, 131072, -1441807, 2, 131072, -1441806, 2, 131072, -1441805, 2, 131072, -1441804, 2, 131072, -1441803, 2, 131072, -1441802, 2, 131072, -1441801, 2, 131072, -1441800, 2, 131072, -1441799, 2, 131072, -1441798, 2, 131072, -1441797, 2, 131072, -1441796, 2, 131072, -1441795, 2, 131072, -1441794, 2, 131072, -1441793, 2, 131072, -1507328, 2, 131072, -1507327, 2, 131072, -1507326, 2, 131072, -1507325, 2, 131072, -1507324, 2, 131072, -1507323, 2, 131072, -1507322, 2, 131072, -1507321, 2, 131072, -1507320, 2, 131072, -1507319, 2, 131072, -1507318, 2, 131072, -1507317, 2, 131072, -1507316, 2, 131072, -1507315, 2, 131072, -1507314, 2, 131072, -1507313, 2, 131072, -1507312, 2, 131072, -1507278, 3, 131072, -1507277, 3, 131072, -1507276, 3, 131072, -1507275, 3, 131072, -1507274, 3, 131072, -1507273, 3, 131072, -1507272, 3, 131072, -1507271, 3, 131072, -1507270, 3, 131072, -1507269, 3, 131072, -1507268, 3, 131072, -1507267, 3, 131072, -1507266, 3, 131072, -1507265, 3, 131072, -1507264, 3, 131072, -1507263, 3, 131072, -1507262, 3, 131072, -1507261, 3, 131072, -1507260, 3, 131072, -1507259, 3, 131072, -1507258, 3, 131072, -1507257, 3, 131072, -1507256, 3, 131072, -1507255, 3, 131072, -1507254, 3, 65536, -1507188, 1, 131073, -1376274, 2, 131072, -1376273, 2, 131072, -1376272, 2, 131072, -1376271, 2, 131072, -1376270, 2, 131072, -1376269, 2, 131072, -1376268, 2, 131072, -1376267, 2, 131072, -1376266, 2, 131072, -1376265, 2, 131072, -1376264, 2, 131072, -1376263, 2, 131072, -1376262, 2, 131072, -1376261, 2, 131072, -1376260, 2, 131072, -1376259, 2, 131072, -1376258, 2, 131072, -1376257, 2, 131072, -1441746, 3, 65536, -1441742, 2, 131072, -1441741, 2, 131072, -1441740, 2, 131072, -1441739, 2, 131072, -1441738, 2, 131072, -1441737, 2, 131072, -1441736, 2, 131072, -1441735, 2, 131072, -1441734, 2, 131072, -1441733, 2, 131072, -1441732, 2, 131072, -1441731, 2, 131072, -1441730, 2, 131072, -1441729, 2, 131072, -1441728, 2, 131072, -1441727, 2, 131072, -1441726, 2, 131072, -1441725, 2, 131072, -1441724, 2, 131072, -1441723, 2, 131072, -1441722, 2, 131072, -1441721, 2, 131072, -1441720, 2, 131072, -1441719, 2, 131072, -1441718, 3, 131072, -1441717, 3, 65536, -1441652, 1, 131073, -1310738, 2, 131072, -1310737, 2, 131072, -1310736, 2, 131072, -1310735, 2, 131072, -1310734, 2, 131072, -1310733, 2, 131072, -1310732, 2, 131072, -1310731, 2, 131072, -1310730, 2, 131072, -1310729, 2, 131072, -1310728, 2, 131072, -1310727, 2, 131072, -1310726, 2, 131072, -1310725, 2, 131072, -1310724, 2, 131072, -1310723, 2, 131072, -1310722, 2, 131072, -1310721, 2, 131072, -1376211, 3, 65536, -1376210, 3, 131072, -1376182, 2, 131072, -1376181, 3, 131072, -1376180, 3, 65536, -1376116, 1, 131073, -1245202, 2, 131072, -1245201, 2, 131072, -1245200, 2, 131072, -1245199, 2, 131072, -1245198, 2, 131072, -1245197, 2, 131072, -1245196, 2, 131072, -1245195, 2, 131072, -1245194, 2, 131072, -1245193, 2, 131072, -1245192, 2, 131072, -1245191, 2, 131072, -1245190, 2, 131072, -1245189, 2, 131072, -1245188, 2, 131072, -1245187, 2, 131072, -1245186, 2, 131072, -1245185, 2, 131072, -1310702, 3, 65536, -1310701, 3, 65536, -1310700, 3, 65536, -1310699, 3, 65536, -1310698, 3, 65536, -1310697, 3, 65536, -1310696, 3, 65536, -1310695, 3, 65536, -1310694, 3, 65536, -1310693, 3, 65536, -1310692, 3, 65536, -1310691, 3, 65536, -1310690, 3, 65536, -1310689, 3, 65536, -1310688, 3, 65536, -1310687, 3, 65536, -1310686, 3, 65536, -1310685, 3, 65536, -1310684, 3, 65536, -1310683, 3, 65536, -1310682, 3, 65536, -1310681, 3, 65536, -1310680, 3, 65536, -1310679, 3, 65536, -1310678, 3, 65536, -1310677, 3, 65536, -1310676, 3, 65536, -1310675, 3, 131072, -1310674, 2, 131072, -1310645, 2, 131072, -1310644, 3, 131072, -1310643, 3, 65536, -1310580, 1, 131073, -1179666, 2, 131072, -1179665, 2, 131072, -1179664, 2, 131072, -1179663, 2, 131072, -1179662, 2, 131072, -1179661, 2, 131072, -1179660, 2, 131072, -1179659, 2, 131072, -1179658, 2, 131072, -1179657, 2, 131072, -1179656, 2, 131072, -1179655, 2, 131072, -1179654, 2, 131072, -1179653, 2, 131072, -1179652, 2, 131072, -1179651, 2, 131072, -1179650, 2, 131072, -1179649, 2, 131072, -1245166, 3, 131072, -1245165, 3, 131072, -1245164, 3, 131072, -1245163, 3, 131072, -1245162, 3, 131072, -1245161, 3, 131072, -1245160, 3, 131072, -1245159, 3, 131072, -1245158, 3, 131072, -1245157, 3, 131072, -1245156, 3, 131072, -1245155, 3, 131072, -1245154, 3, 131072, -1245153, 3, 131072, -1245152, 3, 131072, -1245151, 3, 131072, -1245150, 3, 131072, -1245149, 3, 131072, -1245148, 3, 131072, -1245147, 3, 131072, -1245146, 3, 131072, -1245145, 3, 131072, -1245144, 3, 131072, -1245143, 3, 131072, -1245142, 3, 131072, -1245141, 3, 131072, -1245140, 2, 131072, -1245139, 2, 131072, -1245108, 2, 131072, -1245107, 3, 131072, -1245106, 3, 65536, -1245044, 1, 131073, -1114130, 2, 131072, -1114129, 2, 131072, -1114128, 2, 131072, -1114127, 2, 131072, -1114126, 2, 131072, -1114125, 2, 131072, -1114124, 2, 131072, -1114123, 2, 131072, -1114122, 2, 131072, -1114121, 2, 131072, -1114120, 2, 131072, -1114119, 2, 131072, -1114118, 2, 131072, -1114117, 2, 131072, -1114116, 2, 131072, -1114115, 2, 131072, -1114114, 2, 131072, -1114113, 2, 131072, -1179630, 2, 131072, -1179629, 2, 131072, -1179628, 2, 131072, -1179627, 2, 131072, -1179626, 2, 131072, -1179625, 2, 131072, -1179624, 2, 131072, -1179623, 2, 131072, -1179622, 2, 131072, -1179621, 2, 131072, -1179620, 2, 131072, -1179619, 2, 131072, -1179618, 2, 131072, -1179617, 2, 131072, -1179616, 2, 131072, -1179615, 2, 131072, -1179614, 2, 131072, -1179613, 2, 131072, -1179612, 2, 131072, -1179611, 2, 131072, -1179610, 2, 131072, -1179609, 2, 131072, -1179608, 2, 131072, -1179607, 2, 131072, -1179606, 2, 131072, -1179605, 2, 131072, -1179604, 2, 131072, -1179571, 2, 131072, -1179570, 3, 131072, -1179569, 3, 65536, -1179568, 3, 65536, -1179567, 3, 65536, -1179566, 3, 65536, -1179565, 3, 65536, -1179564, 3, 65536, -1179563, 3, 65536, -1179562, 3, 65536, -1179561, 3, 65536, -1179560, 3, 65536, -1179559, 3, 65536, -1179558, 3, 65536, -1179557, 3, 65536, -1179508, 1, 131073, -1048594, 2, 131072, -1048593, 2, 131072, -1048592, 2, 131072, -1048591, 2, 131072, -1048590, 2, 131072, -1048589, 2, 131072, -1048588, 2, 131072, -1048587, 2, 131072, -1048586, 2, 131072, -1048585, 2, 131072, -1048584, 2, 131072, -1048583, 2, 131072, -1048582, 2, 131072, -1048581, 2, 131072, -1048580, 2, 131072, -1048579, 2, 131072, -1048578, 2, 131072, -1048577, 2, 131072, -1114034, 2, 131072, -1114033, 3, 131072, -1114032, 3, 131072, -1114031, 3, 131072, -1114030, 3, 131072, -1114029, 3, 131072, -1114028, 3, 131072, -1114027, 3, 131072, -1114026, 3, 131072, -1114025, 3, 131072, -1114024, 3, 131072, -1114023, 3, 131072, -1114022, 3, 131072, -1114021, 3, 131072, -1114020, 3, 65536, -1113972, 1, 131073, -983058, 2, 131072, -983057, 2, 131072, -983056, 2, 131072, -983055, 2, 131072, -983054, 2, 131072, -983053, 2, 131072, -983052, 2, 131072, -983051, 2, 131072, -983050, 2, 131072, -983049, 2, 131072, -983048, 2, 131072, -983047, 2, 131072, -983046, 2, 131072, -983045, 2, 131072, -983044, 2, 131072, -983043, 2, 131072, -983042, 2, 131072, -983041, 2, 131072, -1048497, 2, 131072, -1048496, 2, 131072, -1048495, 2, 131072, -1048494, 2, 131072, -1048493, 2, 131072, -1048492, 2, 131072, -1048491, 2, 131072, -1048490, 2, 131072, -1048489, 2, 131072, -1048488, 2, 131072, -1048487, 2, 131072, -1048486, 2, 131072, -1048485, 2, 131072, -1048484, 3, 131072, -1048483, 3, 65536, -1048436, 1, 131073, -917522, 2, 131072, -917521, 2, 131072, -917520, 2, 131072, -917519, 2, 131072, -917518, 2, 131072, -917517, 2, 131072, -917516, 2, 131072, -917515, 2, 131072, -917514, 2, 131072, -917513, 2, 131072, -917512, 2, 131072, -917511, 2, 131072, -917510, 2, 131072, -917509, 2, 131072, -917508, 2, 131072, -917507, 2, 131072, -917506, 2, 131072, -917505, 2, 131072, -982948, 2, 131072, -982947, 3, 131072, -982946, 3, 65536, -982945, 3, 65536, -982900, 1, 131073, -851986, 2, 131072, -851985, 2, 131072, -851984, 2, 131072, -851983, 2, 131072, -851982, 2, 131072, -851981, 2, 131072, -851980, 2, 131072, -851979, 2, 131072, -851978, 2, 131072, -851977, 2, 131072, -851976, 2, 131072, -851975, 2, 131072, -851974, 2, 131072, -851973, 2, 131072, -851972, 2, 131072, -851971, 2, 131072, -851970, 2, 131072, -851969, 2, 131072, -917411, 2, 131072, -917410, 3, 131072, -917409, 3, 131072, -917408, 3, 65536, -917364, 1, 131073, -786450, 2, 131072, -786449, 2, 131072, -786448, 2, 131072, -786447, 2, 131072, -786446, 2, 131072, -786445, 2, 131072, -786444, 2, 131072, -786443, 2, 131072, -786442, 2, 131072, -786441, 2, 131072, -786440, 2, 131072, -786439, 2, 131072, -786438, 2, 131072, -786437, 2, 131072, -786436, 2, 131072, -786435, 2, 131072, -786434, 2, 131072, -786433, 2, 131072, -851874, 2, 131072, -851873, 2, 131072, -851872, 3, 131072, -851871, 3, 65536, -851828, 1, 131073, -720914, 2, 131072, -720913, 2, 131072, -720912, 2, 131072, -720911, 2, 131072, -720910, 2, 131072, -720909, 2, 131072, -720908, 2, 131072, -720907, 2, 131072, -720906, 2, 131072, -720905, 2, 131072, -720904, 2, 131072, -720903, 2, 131072, -720902, 2, 131072, -720901, 2, 131072, -720900, 2, 131072, -720899, 2, 131072, -720898, 2, 131072, -720897, 2, 131072, -786336, 2, 131072, -786335, 3, 131072, -786334, 3, 65536, -786333, 3, 65536, -786332, 3, 65536, -786331, 3, 65536, -786330, 3, 65536, -786329, 3, 65536, -786328, 3, 65536, -786327, 3, 65536, -786326, 3, 65536, -786325, 3, 65536, -786324, 3, 65536, -786292, 1, 131073, -655378, 2, 131072, -655377, 2, 131072, -655376, 2, 131072, -655375, 2, 131072, -655374, 2, 131072, -655373, 2, 131072, -655372, 2, 131072, -655371, 2, 131072, -655370, 2, 131072, -655369, 2, 131072, -655368, 2, 131072, -655367, 2, 131072, -655366, 2, 131072, -655365, 2, 131072, -655364, 2, 131072, -655363, 2, 131072, -655362, 2, 131072, -655361, 2, 131072, -720799, 2, 131072, -720798, 3, 131072, -720797, 3, 131072, -720796, 3, 131072, -720795, 3, 131072, -720794, 3, 131072, -720793, 3, 131072, -720792, 3, 131072, -720791, 3, 131072, -720790, 3, 131072, -720789, 3, 131072, -720788, 3, 131072, -720756, 1, 131073, -589842, 2, 131072, -589841, 2, 131072, -589840, 2, 131072, -589839, 2, 131072, -589838, 2, 131072, -589837, 2, 131072, -589836, 2, 131072, -589835, 2, 131072, -589834, 2, 131072, -589833, 2, 131072, -589832, 2, 131072, -589831, 2, 131072, -589830, 2, 131072, -589829, 2, 131072, -589828, 2, 131072, -589827, 2, 131072, -589826, 2, 131072, -589825, 2, 131072, -655262, 2, 131072, -655261, 2, 131072, -655260, 2, 131072, -655259, 2, 131072, -655258, 2, 131072, -655257, 2, 131072, -655256, 2, 131072, -655255, 2, 131072, -655254, 2, 131072, -655253, 2, 131072, -655252, 2, 131072, -655247, 3, 65536, -655246, 3, 65536, -655245, 3, 65536, -655244, 3, 65536, -655243, 3, 65536, -655242, 3, 65536, -655241, 3, 65536, -655240, 3, 65536, -655239, 3, 65536, -655238, 3, 65536, -655220, 1, 131073, -524306, 2, 131072, -524305, 2, 131072, -524304, 2, 131072, -524303, 2, 131072, -524302, 2, 131072, -524301, 2, 131072, -524300, 2, 131072, -524299, 2, 131072, -524298, 2, 131072, -524297, 2, 131072, -524296, 2, 131072, -524295, 2, 131072, -524294, 2, 131072, -524293, 2, 131072, -524292, 2, 131072, -524291, 2, 131072, -524290, 2, 131072, -524289, 2, 131072, -589712, 3, 65536, -589711, 3, 131072, -589710, 3, 131072, -589709, 3, 131072, -589708, 3, 131072, -589707, 3, 131072, -589706, 3, 131072, -589705, 3, 131072, -589704, 3, 131072, -589703, 3, 131072, -589702, 3, 131072, -589701, 3, 65536, -589684, 1, 131073, -458770, 2, 131072, -458769, 2, 131072, -458768, 2, 131072, -458767, 2, 131072, -458766, 2, 131072, -458765, 2, 131072, -458764, 2, 131072, -458763, 2, 131072, -458762, 2, 131072, -458761, 2, 131072, -458760, 2, 131072, -458759, 2, 131072, -458758, 2, 131072, -458757, 2, 131072, -458756, 2, 131072, -458755, 2, 131072, -458754, 2, 131072, -458753, 2, 131072, -524177, 3, 65536, -524176, 3, 131072, -524175, 2, 131072, -524174, 2, 131072, -524173, 2, 131072, -524172, 2, 131072, -524171, 2, 131072, -524170, 2, 131072, -524169, 2, 131072, -524168, 2, 131072, -524167, 2, 131072, -524166, 2, 131072, -524165, 3, 131072, -524164, 3, 65536, -524148, 1, 131073, -393234, 2, 131072, -393233, 2, 131072, -393232, 2, 131072, -393231, 2, 131072, -393230, 2, 131072, -393229, 2, 131072, -393228, 2, 131072, -393227, 2, 131072, -393226, 2, 131072, -393225, 2, 131072, -393224, 2, 131072, -393223, 2, 131072, -393222, 2, 131072, -393221, 2, 131072, -393220, 2, 131072, -393219, 2, 131072, -393218, 2, 131072, -393217, 2, 131072, -458641, 3, 131072, -458640, 2, 131072, -458639, 2, 131072, -458630, 2, 131072, -458629, 2, 131072, -458628, 3, 131072, -458627, 3, 65536, -458612, 1, 131073, -327698, 2, 131072, -327697, 2, 131072, -327696, 2, 131072, -327695, 2, 131072, -327694, 2, 131072, -327693, 2, 131072, -327692, 2, 131072, -327691, 2, 131072, -327690, 1, 131073, -327689, 2, 131072, -327688, 1, 131073, -327687, 1, 131073, -327686, 2, 131072, -327685, 2, 131072, -327684, 2, 131072, -327683, 2, 131072, -327682, 1, 131073, -327681, 2, 131072, -393093, 2, 131072, -393092, 2, 131072, -393091, 3, 131072, -393090, 3, 65536, -393076, 1, 131073, -262154, 1, 131073, -262153, 1, 131073, -262152, 1, 131073, -262151, 1, 131073, -262150, 1, 131073, -262149, 1, 131073, -262148, 1, 131073, -262147, 1, 131073, -262146, 1, 131073, -262145, 1, 131073, -327556, 2, 131072, -327555, 2, 131072, -327554, 3, 131072, -327553, 3, 65536, -327540, 1, 131073, -196618, 1, 131073, -196617, 1, 131073, -196616, 1, 131073, -196615, 1, 131073, -196614, 1, 131073, -196613, 1, 131073, -196612, 1, 131073, -196611, 1, 131073, -196610, 1, 131073, -196609, 1, 131073, -262019, 2, 131072, -262018, 2, 131072, -262017, 3, 131072, -262016, 3, 65536, -262004, 1, 131073, -131082, 1, 131073, -131081, 1, 131073, -131080, 1, 131073, -131079, 1, 131073, -131078, 1, 131073, -131077, 1, 131073, -131076, 1, 131073, -131075, 1, 131073, -131074, 1, 131073, -131073, 1, 131073, -196482, 2, 131072, -196481, 2, 131072, -196480, 3, 131072, -196468, 1, 131073, -65546, 1, 131073, -65545, 1, 131073, -65544, 1, 131073, -65543, 1, 131073, -65542, 1, 131073, -65541, 1, 131073, -65540, 1, 131073, -65539, 1, 131073, -65538, 1, 131073, -65537, 1, 131073, -130932, 1, 131073, -10, 1, 131073, -9, 1, 131073, -8, 1, 131073, -7, 1, 131073, -6, 1, 131073, -5, 1, 131073, -4, 1, 131073, -3, 1, 131073, -2, 1, 131073, -1, 1, 131073, -65524, 3, 65536, -65523, 4, 3, -65522, 4, 3, -65521, 4, 3, -65520, 4, 3, -65519, 4, 3, -65518, 4, 3, -65517, 4, 3, -65516, 3, 65536, -65515, 3, 65536, -65403, 3, 65536, -65402, 3, 65536, -65401, 3, 65536, -65400, 3, 65536, -65399, 3, 65536, -65398, 3, 65536, -65397, 3, 65536, -65396, 1, 131073, 65526, 1, 131073, 65527, 1, 131073, 65528, 1, 131073, 65529, 1, 131073, 65530, 1, 131073, 65531, 1, 131073, 65532, 1, 131073, 65533, 1, 131073, 65534, 1, 131073, 65535, 1, 131073, 11, 3, 65536, 12, 3, 131072, 13, 4, 65538, 14, 4, 65538, 15, 4, 65538, 16, 4, 65538, 17, 4, 65538, 18, 4, 65538, 19, 4, 65538, 20, 3, 131072, 21, 3, 131072, 22, 3, 65536, 32, 3, 65536, 33, 3, 65536, 34, 3, 65536, 35, 3, 65536, 36, 3, 65536, 37, 3, 65536, 38, 3, 65536, 39, 3, 65536, 40, 3, 65536, 41, 3, 65536, 42, 3, 65536, 43, 3, 65536, 44, 3, 65536, 45, 3, 65536, 46, 3, 65536, 53, 3, 65536, 54, 3, 65536, 55, 3, 65536, 56, 3, 65536, 57, 3, 65536, 58, 3, 65536, 59, 3, 65536, 60, 3, 65536, 61, 3, 65536, 62, 3, 65536, 63, 3, 65536, 64, 3, 65536, 65, 3, 65536, 66, 3, 65536, 67, 3, 65536, 68, 3, 65536, 69, 3, 65536, 70, 3, 65536, 71, 3, 65536, 72, 3, 65536, 73, 3, 65536, 74, 3, 65536, 75, 3, 65536, 76, 3, 65536, 77, 3, 65536, 78, 3, 65536, 79, 3, 65536, 80, 3, 65536, 81, 3, 65536, 82, 3, 65536, 83, 3, 65536, 84, 3, 65536, 85, 3, 65536, 86, 3, 65536, 87, 3, 65536, 88, 3, 65536, 89, 3, 65536, 90, 3, 65536, 91, 3, 65536, 92, 3, 65536, 132, 3, 65536, 133, 3, 131072, 134, 3, 131072, 135, 3, 131072, 136, 3, 131072, 137, 3, 131072, 138, 3, 131072, 139, 3, 131072, 140, 1, 131073, 131062, 1, 131073, 131063, 1, 131073, 131064, 1, 131073, 131065, 1, 131073, 131066, 1, 131073, 131067, 1, 131073, 131068, 1, 131073, 131069, 1, 131073, 131070, 1, 131073, 131071, 1, 131073, 65567, 3, 65536, 65568, 3, 131072, 65569, 3, 131072, 65570, 3, 131072, 65571, 3, 131072, 65572, 3, 131072, 65573, 3, 131072, 65574, 3, 131072, 65575, 3, 131072, 65576, 3, 131072, 65577, 3, 131072, 65578, 3, 131072, 65579, 3, 131072, 65580, 3, 131072, 65581, 3, 131072, 65582, 3, 131072, 65589, 3, 131072, 65590, 3, 131072, 65591, 3, 131072, 65592, 3, 131072, 65593, 3, 131072, 65594, 3, 131072, 65595, 3, 131072, 65596, 3, 131072, 65597, 3, 131072, 65598, 3, 131072, 65599, 3, 131072, 65600, 3, 131072, 65601, 3, 131072, 65602, 3, 131072, 65603, 3, 131072, 65604, 3, 131072, 65605, 3, 131072, 65606, 3, 131072, 65607, 3, 131072, 65608, 3, 131072, 65609, 3, 131072, 65610, 3, 131072, 65611, 3, 131072, 65612, 3, 131072, 65613, 3, 131072, 65614, 3, 131072, 65615, 3, 131072, 65616, 3, 131072, 65617, 3, 131072, 65618, 3, 131072, 65619, 3, 131072, 65620, 3, 131072, 65621, 3, 131072, 65622, 3, 131072, 65623, 3, 131072, 65624, 3, 131072, 65625, 3, 131072, 65626, 3, 131072, 65627, 3, 131072, 65628, 3, 131072, 65629, 3, 65536, 65667, 3, 65536, 65668, 3, 131072, 65669, 2, 131072, 65670, 2, 131072, 65671, 2, 131072, 65672, 2, 131072, 65673, 2, 131072, 65674, 2, 131072, 65675, 2, 131072, 65676, 1, 131073, 196598, 1, 131073, 196599, 1, 131073, 196600, 1, 131073, 196601, 1, 131073, 196602, 1, 131073, 196603, 1, 131073, 196604, 1, 131073, 196605, 1, 131073, 196606, 1, 131073, 196607, 1, 131073, 131102, 3, 65536, 131103, 3, 131072, 131104, 2, 131072, 131105, 2, 131072, 131106, 2, 131072, 131107, 2, 131072, 131108, 2, 131072, 131109, 2, 131072, 131110, 2, 131072, 131111, 2, 131072, 131112, 2, 131072, 131113, 2, 131072, 131114, 2, 131072, 131115, 1, 131073, 131116, 2, 131072, 131117, 2, 131072, 131125, 1, 131073, 131126, 2, 131072, 131127, 2, 131072, 131128, 2, 131072, 131129, 2, 131072, 131130, 2, 131072, 131131, 2, 131072, 131132, 2, 131072, 131133, 2, 131072, 131134, 2, 131072, 131135, 2, 131072, 131136, 2, 131072, 131137, 2, 131072, 131138, 2, 131072, 131139, 2, 131072, 131140, 2, 131072, 131141, 2, 131072, 131142, 2, 131072, 131143, 2, 131072, 131144, 2, 131072, 131145, 2, 131072, 131146, 2, 131072, 131147, 2, 131072, 131148, 2, 131072, 131149, 2, 131072, 131150, 2, 131072, 131151, 2, 131072, 131152, 2, 131072, 131153, 2, 131072, 131154, 2, 131072, 131155, 2, 131072, 131156, 2, 131072, 131157, 2, 131072, 131158, 2, 131072, 131159, 2, 131072, 131160, 2, 131072, 131161, 2, 131072, 131162, 2, 131072, 131163, 2, 131072, 131164, 2, 131072, 131165, 3, 131072, 131166, 3, 65536, 131202, 3, 65536, 131203, 3, 131072, 131204, 2, 131072, 131205, 2, 131072, 131206, 2, 131072, 131207, 2, 131072, 131208, 2, 131072, 131209, 2, 131072, 131210, 2, 131072, 131211, 2, 131072, 131212, 2, 131072, 262134, 1, 131073, 262135, 1, 131073, 262136, 1, 131073, 262137, 1, 131073, 262138, 1, 131073, 262139, 1, 131073, 262140, 1, 131073, 262141, 1, 131073, 262142, 1, 131073, 262143, 1, 131073, 196637, 3, 65536, 196638, 3, 131072, 196639, 2, 131072, 196640, 2, 131072, 196641, 2, 131072, 196642, 2, 131072, 196643, 2, 131072, 196644, 2, 131072, 196645, 2, 131072, 196646, 2, 131072, 196647, 2, 131072, 196648, 2, 131072, 196649, 2, 131072, 196650, 2, 131072, 196651, 1, 131073, 196652, 1, 131073, 196653, 2, 131072, 196661, 1, 131073, 196662, 2, 131072, 196663, 2, 131072, 196664, 2, 131072, 196665, 2, 131072, 196666, 2, 131072, 196667, 2, 131072, 196668, 2, 131072, 196669, 2, 131072, 196670, 2, 131072, 196671, 2, 131072, 196672, 2, 131072, 196673, 2, 131072, 196674, 2, 131072, 196675, 2, 131072, 196676, 2, 131072, 196677, 2, 131072, 196678, 2, 131072, 196679, 2, 131072, 196680, 2, 131072, 196681, 2, 131072, 196682, 2, 131072, 196683, 2, 131072, 196684, 2, 131072, 196685, 2, 131072, 196686, 2, 131072, 196687, 2, 131072, 196688, 2, 131072, 196689, 2, 131072, 196690, 2, 131072, 196691, 2, 131072, 196692, 2, 131072, 196693, 2, 131072, 196694, 2, 131072, 196695, 2, 131072, 196696, 2, 131072, 196697, 2, 131072, 196698, 2, 131072, 196699, 2, 131072, 196700, 2, 131072, 196701, 2, 131072, 196702, 3, 131072, 196703, 3, 65536, 196737, 3, 65536, 196738, 3, 131072, 196739, 2, 131072, 196740, 2, 131072, 196741, 2, 131072, 196742, 2, 131072, 196743, 2, 131072, 196744, 2, 131072, 196745, 2, 131072, 196746, 2, 131072, 196747, 2, 131072, 196748, 2, 131072, 327670, 1, 131073, 327671, 1, 131073, 327672, 1, 131073, 327673, 1, 131073, 327674, 1, 131073, 327675, 1, 131073, 327676, 1, 131073, 327677, 1, 131073, 327678, 1, 131073, 327679, 1, 131073, 262172, 3, 65536, 262173, 3, 131072, 262174, 2, 131072, 262175, 2, 131072, 262176, 2, 131072, 262177, 2, 131072, 262178, 2, 131072, 262179, 2, 131072, 262180, 2, 131072, 262181, 2, 131072, 262182, 2, 131072, 262183, 2, 131072, 262184, 2, 131072, 262185, 2, 131072, 262186, 2, 131072, 262187, 1, 131073, 262188, 1, 131073, 262189, 2, 131072, 262197, 1, 131073, 262198, 2, 131072, 262199, 2, 131072, 262200, 2, 131072, 262201, 2, 131072, 262202, 2, 131072, 262203, 2, 131072, 262204, 2, 131072, 262205, 2, 131072, 262206, 2, 131072, 262207, 2, 131072, 262208, 2, 131072, 262209, 2, 131072, 262210, 2, 131072, 262211, 2, 131072, 262212, 2, 131072, 262213, 2, 131072, 262214, 2, 131072, 262215, 2, 131072, 262216, 2, 131072, 262217, 2, 131072, 262218, 2, 131072, 262219, 2, 131072, 262220, 2, 131072, 262221, 2, 131072, 262222, 2, 131072, 262223, 2, 131072, 262224, 2, 131072, 262225, 2, 131072, 262226, 2, 131072, 262227, 2, 131072, 262228, 2, 131072, 262229, 2, 131072, 262230, 2, 131072, 262231, 2, 131072, 262232, 2, 131072, 262233, 2, 131072, 262234, 2, 131072, 262235, 2, 131072, 262236, 2, 131072, 262237, 2, 131072, 262238, 2, 131072, 262239, 3, 131072, 262240, 3, 65536, 262272, 3, 65536, 262273, 3, 131072, 262274, 2, 131072, 262275, 2, 131072, 262276, 2, 131072, 262277, 2, 131072, 262278, 2, 131072, 262279, 2, 131072, 262280, 2, 131072, 262281, 2, 131072, 262282, 2, 131072, 262283, 2, 131072, 262284, 2, 131072, 393206, 1, 131073, 393207, 1, 131073, 393208, 1, 131073, 393209, 1, 131073, 393210, 1, 131073, 393211, 1, 131073, 393212, 1, 131073, 393213, 1, 131073, 393214, 1, 131073, 393215, 1, 131073, 327707, 3, 65536, 327708, 3, 131072, 327709, 2, 131072, 327710, 2, 131072, 327711, 2, 131072, 327712, 2, 131072, 327713, 2, 131072, 327714, 2, 131072, 327715, 2, 131072, 327716, 2, 131072, 327717, 2, 131072, 327718, 2, 131072, 327719, 2, 131072, 327720, 2, 131072, 327721, 2, 131072, 327722, 2, 131072, 327723, 1, 131073, 327724, 1, 131073, 327725, 2, 131072, 327733, 1, 131073, 327734, 1, 131073, 327735, 1, 131073, 327736, 1, 131073, 327737, 2, 131072, 327738, 2, 131072, 327739, 2, 131072, 327740, 2, 131072, 327741, 2, 131072, 327742, 2, 131072, 327743, 2, 131072, 327744, 2, 131072, 327745, 2, 131072, 327746, 2, 131072, 327747, 2, 131072, 327748, 2, 131072, 327749, 2, 131072, 327750, 2, 131072, 327751, 2, 131072, 327752, 2, 131072, 327753, 2, 131072, 327754, 2, 131072, 327755, 2, 131072, 327756, 2, 131072, 327757, 2, 131072, 327758, 2, 131072, 327759, 2, 131072, 327760, 2, 131072, 327761, 2, 131072, 327762, 2, 131072, 327763, 2, 131072, 327764, 2, 131072, 327765, 2, 131072, 327766, 2, 131072, 327767, 2, 131072, 327768, 2, 131072, 327769, 2, 131072, 327770, 2, 131072, 327771, 2, 131072, 327772, 2, 131072, 327773, 2, 131072, 327774, 2, 131072, 327775, 2, 131072, 327776, 3, 131072, 327777, 3, 65536, 327807, 3, 65536, 327808, 3, 131072, 327809, 2, 131072, 327810, 2, 131072, 327811, 2, 131072, 327812, 2, 131072, 327813, 2, 131072, 327814, 2, 131072, 327815, 2, 131072, 327816, 2, 131072, 327817, 2, 131072, 327818, 2, 131072, 327819, 2, 131072, 327820, 2, 131072, 458742, 1, 131073, 458743, 1, 131073, 458744, 1, 131073, 458745, 1, 131073, 458746, 1, 131073, 458747, 1, 131073, 458748, 1, 131073, 458749, 1, 131073, 458750, 1, 131073, 458751, 1, 131073, 393216, 3, 65536, 393217, 3, 65536, 393218, 3, 65536, 393219, 3, 65536, 393220, 3, 65536, 393221, 3, 65536, 393222, 3, 65536, 393223, 3, 65536, 393224, 3, 65536, 393225, 3, 65536, 393226, 3, 65536, 393227, 4, 4, 393228, 4, 5, 393229, 4, 6, 393230, 3, 0, 393232, 3, 0, 393242, 3, 65536, 393243, 3, 131072, 393244, 2, 131072, 393245, 2, 131072, 393246, 2, 131072, 393247, 2, 131072, 393248, 2, 131072, 393249, 2, 131072, 393250, 2, 131072, 393251, 2, 131072, 393252, 1, 131073, 393253, 1, 131073, 393254, 1, 131073, 393255, 1, 131073, 393256, 1, 131073, 393257, 1, 131073, 393258, 1, 131073, 393259, 1, 131073, 393260, 1, 131073, 393261, 1, 131073, 393269, 1, 131073, 393270, 1, 131073, 393271, 1, 131073, 393272, 2, 131072, 393273, 2, 131072, 393274, 2, 131072, 393275, 2, 131072, 393276, 2, 131072, 393277, 2, 131072, 393278, 2, 131072, 393279, 2, 131072, 393280, 2, 131072, 393281, 2, 131072, 393282, 2, 131072, 393283, 2, 131072, 393284, 2, 131072, 393285, 2, 131072, 393286, 2, 131072, 393287, 2, 131072, 393288, 2, 131072, 393289, 2, 131072, 393290, 2, 131072, 393291, 2, 131072, 393292, 2, 131072, 393293, 2, 131072, 393294, 2, 131072, 393295, 2, 131072, 393296, 2, 131072, 393297, 2, 131072, 393298, 2, 131072, 393299, 2, 131072, 393300, 2, 131072, 393301, 2, 131072, 393302, 2, 131072, 393303, 2, 131072, 393304, 2, 131072, 393305, 2, 131072, 393306, 2, 131072, 393307, 2, 131072, 393308, 2, 131072, 393309, 2, 131072, 393310, 2, 131072, 393311, 2, 131072, 393312, 2, 131072, 393313, 3, 131072, 393314, 3, 65536, 393342, 3, 65536, 393343, 3, 131072, 393344, 2, 131072, 393345, 2, 131072, 393346, 2, 131072, 393347, 2, 131072, 393348, 2, 131072, 393349, 2, 131072, 393350, 2, 131072, 393351, 2, 131072, 393352, 2, 131072, 393353, 2, 131072, 393354, 2, 131072, 393355, 2, 131072, 393356, 2, 131072, 524278, 1, 131073, 524279, 1, 131073, 524280, 1, 131073, 524281, 1, 131073, 524282, 1, 131073, 524283, 1, 131073, 524284, 1, 131073, 524285, 1, 131073, 524286, 1, 131073, 524287, 1, 131073, 458752, 3, 131072, 458753, 3, 131072, 458754, 3, 131072, 458755, 3, 131072, 458756, 3, 131072, 458757, 3, 131072, 458758, 3, 131072, 458759, 3, 131072, 458760, 3, 131072, 458761, 3, 131072, 458762, 3, 131072, 458763, 4, 65539, 458764, 4, 65541, 458765, 4, 65542, 458766, 3, 65536, 458767, 3, 65536, 458768, 3, 65536, 458769, 3, 65536, 458770, 3, 65536, 458771, 3, 65536, 458772, 3, 65536, 458773, 3, 65536, 458774, 3, 65536, 458775, 3, 65536, 458776, 3, 65536, 458777, 3, 65536, 458778, 3, 131072, 458779, 2, 131072, 458780, 2, 131072, 458781, 2, 131072, 458782, 2, 131072, 458783, 2, 131072, 458784, 2, 131072, 458785, 2, 131072, 458786, 2, 131072, 458787, 1, 131073, 458788, 1, 131073, 458789, 1, 131073, 458790, 1, 131073, 458791, 1, 131073, 458792, 1, 131073, 458793, 1, 131073, 458794, 1, 131073, 458795, 1, 131073, 458796, 1, 131073, 458797, 1, 131073, 458805, 1, 131073, 458806, 1, 131073, 458807, 1, 131073, 458808, 1, 131073, 458809, 2, 131072, 458810, 2, 131072, 458811, 2, 131072, 458812, 2, 131072, 458813, 2, 131072, 458814, 2, 131072, 458815, 2, 131072, 458816, 2, 131072, 458817, 2, 131072, 458818, 2, 131072, 458819, 2, 131072, 458820, 2, 131072, 458821, 2, 131072, 458822, 2, 131072, 458823, 2, 131072, 458824, 2, 131072, 458825, 2, 131072, 458826, 2, 131072, 458827, 2, 131072, 458828, 2, 131072, 458829, 2, 131072, 458830, 2, 131072, 458831, 2, 131072, 458832, 2, 131072, 458833, 2, 131072, 458834, 2, 131072, 458835, 2, 131072, 458836, 2, 131072, 458837, 2, 131072, 458838, 2, 131072, 458839, 2, 131072, 458840, 2, 131072, 458841, 2, 131072, 458842, 2, 131072, 458843, 2, 131072, 458844, 2, 131072, 458845, 2, 131072, 458846, 2, 131072, 458847, 2, 131072, 458848, 2, 131072, 458849, 2, 131072, 458850, 3, 131072, 458851, 3, 65536, 458852, 3, 65536, 458853, 3, 65536, 458854, 3, 65536, 458855, 3, 65536, 458856, 3, 65536, 458857, 3, 65536, 458858, 3, 65536, 458859, 3, 65536, 458860, 3, 65536, 458861, 3, 65536, 458862, 3, 65536, 458863, 3, 65536, 458864, 3, 65536, 458865, 3, 65536, 458872, 3, 65536, 458873, 3, 65536, 458874, 3, 65536, 458875, 3, 65536, 458876, 3, 65536, 458877, 3, 65536, 458878, 3, 131072, 458879, 2, 131072, 458880, 2, 131072, 458881, 2, 131072, 458882, 2, 131072, 458883, 2, 131072, 458884, 2, 131072, 458885, 2, 131072, 458886, 2, 131072, 458887, 2, 131072, 458888, 2, 131072, 458889, 2, 131072, 458890, 2, 131072, 458891, 2, 131072, 458892, 2, 131072, 589814, 1, 131073, 589815, 1, 131073, 589816, 1, 131073, 589817, 1, 131073, 589818, 1, 131073, 589819, 2, 131072, 589820, 2, 131072, 589821, 2, 131072, 589822, 2, 131072, 589823, 2, 131072, 524288, 2, 131072, 524289, 2, 131072, 524290, 2, 131072, 524291, 2, 131072, 524292, 2, 131072, 524293, 2, 131072, 524294, 2, 131072, 524295, 2, 131072, 524296, 2, 131072, 524297, 2, 131072, 524298, 2, 131072, 524299, 2, 131072, 524300, 2, 131072, 524301, 2, 131072, 524302, 3, 131072, 524303, 3, 131072, 524304, 3, 131072, 524305, 3, 131072, 524306, 3, 131072, 524307, 3, 131072, 524308, 3, 131072, 524309, 3, 131072, 524310, 3, 131072, 524311, 3, 131072, 524312, 3, 131072, 524313, 3, 131072, 524314, 2, 131072, 524315, 2, 131072, 524316, 2, 131072, 524317, 2, 131072, 524318, 2, 131072, 524319, 2, 131072, 524320, 2, 131072, 524321, 2, 131072, 524322, 1, 131073, 524323, 1, 131073, 524324, 1, 131073, 524325, 1, 131073, 524326, 1, 131073, 524327, 1, 131073, 524328, 1, 131073, 524329, 1, 131073, 524330, 1, 131073, 524331, 1, 131073, 524332, 1, 131073, 524333, 1, 131073, 524341, 1, 131073, 524342, 1, 131073, 524343, 1, 131073, 524344, 1, 131073, 524345, 1, 131073, 524346, 2, 131072, 524347, 2, 131072, 524348, 2, 131072, 524349, 2, 131072, 524350, 2, 131072, 524351, 2, 131072, 524352, 2, 131072, 524353, 2, 131072, 524354, 2, 131072, 524355, 2, 131072, 524356, 2, 131072, 524357, 2, 131072, 524358, 2, 131072, 524359, 2, 131072, 524360, 2, 131072, 524361, 2, 131072, 524362, 2, 131072, 524363, 2, 131072, 524364, 2, 131072, 524365, 2, 131072, 524366, 2, 131072, 524367, 2, 131072, 524368, 2, 131072, 524369, 2, 131072, 524370, 2, 131072, 524371, 2, 131072, 524372, 2, 131072, 524373, 2, 131072, 524374, 2, 131072, 524375, 2, 131072, 524376, 2, 131072, 524377, 2, 131072, 524378, 2, 131072, 524379, 2, 131072, 524380, 2, 131072, 524381, 2, 131072, 524382, 2, 131072, 524383, 2, 131072, 524384, 2, 131072, 524385, 2, 131072, 524386, 2, 131072, 524387, 3, 131072, 524388, 3, 131072, 524389, 3, 131072, 524390, 3, 131072, 524391, 3, 131072, 524392, 3, 131072, 524393, 3, 131072, 524394, 3, 131072, 524395, 3, 131072, 524396, 3, 131072, 524397, 3, 131072, 524398, 3, 131072, 524399, 3, 131072, 524400, 3, 131072, 524401, 3, 131072, 524408, 3, 131072, 524409, 3, 131072, 524410, 3, 131072, 524411, 3, 131072, 524412, 3, 131072, 524413, 3, 131072, 524414, 2, 131072, 524415, 2, 131072, 524416, 2, 131072, 524417, 2, 131072, 524418, 2, 131072, 524419, 2, 131072, 524420, 2, 131072, 524421, 2, 131072, 524422, 2, 131072, 524423, 2, 131072, 524424, 2, 131072, 524425, 2, 131072, 524426, 2, 131072, 524427, 2, 131072, 524428, 2, 131072, 655350, 1, 131073, 655351, 1, 131073, 655352, 1, 131073, 655353, 1, 131073, 655354, 1, 131073, 655355, 2, 131072, 655356, 2, 131072, 655357, 2, 131072, 655358, 2, 131072, 655359, 2, 131072, 589824, 2, 131072, 589825, 2, 131072, 589826, 2, 131072, 589827, 2, 131072, 589828, 2, 131072, 589829, 2, 131072, 589830, 2, 131072, 589831, 2, 131072, 589832, 2, 131072, 589833, 2, 131072, 589834, 2, 131072, 589835, 2, 131072, 589836, 2, 131072, 589837, 2, 131072, 589838, 2, 131072, 589839, 2, 131072, 589840, 2, 131072, 589841, 2, 131072, 589842, 2, 131072, 589843, 2, 131072, 589844, 2, 131072, 589845, 2, 131072, 589846, 2, 131072, 589847, 2, 131072, 589848, 2, 131072, 589849, 2, 131072, 589850, 2, 131072, 589851, 2, 131072, 589852, 2, 131072, 589853, 2, 131072, 589854, 1, 131073, 589855, 1, 131073, 589856, 1, 131073, 589857, 1, 131073, 589858, 1, 131073, 589859, 1, 131073, 589860, 1, 131073, 589861, 1, 131073, 589862, 1, 131073, 589863, 1, 131073, 589864, 1, 131073, 589865, 1, 131073, 589866, 1, 131073, 589867, 1, 131073, 589868, 1, 131073, 589869, 1, 131073, 589877, 1, 131073, 589878, 1, 131073, 589879, 1, 131073, 589880, 1, 131073, 589881, 1, 131073, 589882, 1, 131073, 589883, 1, 131073, 589884, 2, 131072, 589885, 2, 131072, 589886, 2, 131072, 589887, 2, 131072, 589888, 2, 131072, 589889, 2, 131072, 589890, 2, 131072, 589891, 2, 131072, 589892, 2, 131072, 589893, 2, 131072, 589894, 2, 131072, 589895, 2, 131072, 589896, 2, 131072, 589897, 2, 131072, 589898, 2, 131072, 589899, 2, 131072, 589900, 2, 131072, 589901, 2, 131072, 589902, 2, 131072, 589903, 2, 131072, 589904, 2, 131072, 589905, 2, 131072, 589906, 2, 131072, 589907, 2, 131072, 589908, 2, 131072, 589909, 2, 131072, 589910, 2, 131072, 589911, 2, 131072, 589912, 2, 131072, 589913, 2, 131072, 589914, 2, 131072, 589915, 2, 131072, 589916, 2, 131072, 589917, 2, 131072, 589918, 2, 131072, 589919, 2, 131072, 589920, 2, 131072, 589921, 2, 131072, 589922, 2, 131072, 589923, 2, 131072, 589924, 2, 131072, 589925, 2, 131072, 589926, 2, 131072, 589927, 2, 131072, 589928, 2, 131072, 589929, 2, 131072, 589930, 2, 131072, 589931, 2, 131072, 589932, 2, 131072, 589933, 2, 131072, 589934, 2, 131072, 589935, 2, 131072, 589944, 2, 131072, 589945, 2, 131072, 589946, 2, 131072, 589947, 2, 131072, 589948, 2, 131072, 589949, 2, 131072, 589950, 2, 131072, 589951, 2, 131072, 589952, 2, 131072, 589953, 2, 131072, 589954, 2, 131072, 589955, 2, 131072, 589956, 2, 131072, 589957, 2, 131072, 589958, 2, 131072, 589959, 2, 131072, 589960, 2, 131072, 589961, 2, 131072, 589962, 2, 131072, 589963, 2, 131072, 589964, 2, 131072, 655360, 1, 131073, 655361, 1, 131073, 655362, 1, 131073, 655363, 1, 131073, 655364, 1, 131073, 655365, 1, 131073, 655366, 1, 131073, 655367, 1, 131073, 655368, 1, 131073, 655369, 1, 131073, 655370, 1, 131073, 655371, 1, 131073, 655372, 1, 131073, 655373, 1, 131073, 655374, 1, 131073, 655375, 1, 131073, 655376, 1, 131073, 655377, 1, 131073, 655378, 1, 131073, 655379, 1, 131073, 655380, 1, 131073, 655381, 1, 131073, 655382, 1, 131073, 655383, 1, 131073, 655384, 1, 131073, 655385, 1, 131073, 655386, 1, 131073, 655387, 1, 131073, 655388, 1, 131073, 655389, 1, 131073, 655390, 1, 131073, 655391, 1, 131073, 655392, 1, 131073, 655393, 1, 131073, 655394, 1, 131073, 655395, 1, 131073, 655396, 1, 131073, 655397, 1, 131073, 655398, 1, 131073, 655399, 1, 131073, 655400, 1, 131073, 655401, 1, 131073, 655402, 1, 131073, 655403, 1, 131073, 655404, 1, 131073, 655405, 1, 131073, 655413, 1, 131073, 655414, 1, 131073, 655415, 1, 131073, 655416, 1, 131073, 655417, 1, 131073, 655418, 1, 131073, 655419, 1, 131073, 655420, 1, 131073, 655421, 1, 131073, 655422, 1, 131073, 655423, 1, 131073, 655457, 1, 131073, 655458, 2, 131072, 655459, 2, 131072, 655460, 2, 131072, 655461, 2, 131072, 655462, 2, 131072, 655463, 2, 131072, 655464, 2, 131072, 655465, 2, 131072, 655466, 2, 131072, 655467, 2, 131072, 655468, 2, 131072, 655469, 2, 131072, 655470, 2, 131072, 655471, 2, 131072, 655480, 2, 131072, 655481, 2, 131072, 655482, 2, 131072, 655483, 2, 131072, 655484, 2, 131072, 655485, 2, 131072, 655486, 2, 131072, 655487, 2, 131072, 655488, 2, 131072, 655489, 2, 131072, 655490, 2, 131072, 655491, 2, 131072, 655492, 2, 131072, 655493, 2, 131072, 655494, 2, 131072, 655495, 2, 131072, 655496, 2, 131072, 655497, 2, 131072, 655498, 2, 131072, 655499, 2, 131072, 655500, 2, 131072, 720896, 1, 131073, 720897, 1, 131073, 720898, 1, 131073, 720899, 1, 131073, 720900, 1, 131073, 720901, 1, 131073, 720902, 1, 131073, 720903, 1, 131073, 720904, 1, 131073, 720905, 1, 131073, 720906, 1, 131073, 720907, 1, 131073, 720908, 1, 131073, 720909, 1, 131073, 720910, 1, 131073, 720911, 1, 131073, 720912, 1, 131073, 720913, 1, 131073, 720914, 1, 131073, 720915, 1, 131073, 720916, 1, 131073, 720917, 1, 131073, 720918, 1, 131073, 720919, 1, 131073, 720920, 1, 131073, 720921, 1, 131073, 720922, 1, 131073, 720923, 1, 131073, 720924, 1, 131073, 720925, 1, 131073, 720926, 1, 131073, 720927, 1, 131073, 720928, 1, 131073, 720929, 1, 131073, 720930, 1, 131073, 720931, 1, 131073, 720932, 1, 131073, 720933, 1, 131073, 720934, 1, 131073, 720935, 1, 131073, 720936, 1, 131073, 720937, 1, 131073, 720938, 1, 131073, 720939, 1, 131073, 720940, 1, 131073, 720941, 1, 131073, 720949, 1, 131073, 720950, 1, 131073, 720951, 1, 131073, 720952, 1, 131073, 720953, 1, 131073, 720954, 1, 131073, 720955, 1, 131073, 720956, 1, 131073, 720957, 1, 131073, 720958, 1, 131073, 720959, 1, 131073, 720993, 1, 131073, 720994, 2, 131072, 720995, 1, 131073, 720996, 2, 131072, 720997, 2, 131072, 720998, 2, 131072, 720999, 2, 131072, 721000, 2, 131072, 721001, 2, 131072, 721002, 2, 131072, 721003, 2, 131072, 721004, 2, 131072, 721005, 2, 131072, 721006, 2, 131072, 721007, 2, 131072, 721016, 2, 131072, 721017, 2, 131072, 721018, 2, 131072, 721019, 2, 131072, 721020, 2, 131072, 721021, 2, 131072, 721022, 2, 131072, 721023, 2, 131072, 721024, 2, 131072, 721025, 2, 131072, 721026, 2, 131072, 721027, 2, 131072, 721028, 2, 131072, 721029, 2, 131072, 721030, 2, 131072, 721031, 2, 131072, 721032, 2, 131072, 721033, 2, 131072, 721034, 2, 131072, 721035, 2, 131072, 721036, 2, 131072, 786468, 1, 131073, 786469, 1, 131073, 786470, 1, 131073, 786471, 1, 131073, 786472, 1, 131073, 786473, 1, 131073, 786474, 1, 131073, 786475, 1, 131073, 786476, 1, 131073, 786477, 1, 131073, 786485, 1, 131073, 786486, 1, 131073, 786487, 1, 131073, 786488, 1, 131073, 786489, 1, 131073, 786490, 1, 131073, 786491, 1, 131073, 786492, 1, 131073, 786493, 1, 131073, 786494, 1, 131073, 786495, 1, 131073, 786529, 1, 131073, 786530, 1, 131073, 786531, 1, 131073, 786532, 1, 131073, 786533, 1, 131073, 786534, 1, 131073, 786535, 1, 131073, 786536, 1, 131073, 786537, 1, 131073, 786538, 1, 131073, 786539, 2, 131072, 786540, 2, 131072, 786541, 2, 131072, 786542, 2, 131072, 786543, 2, 131072, 786552, 2, 131072, 786553, 2, 131072, 786554, 2, 131072, 786555, 2, 131072, 786556, 2, 131072, 786557, 2, 131072, 786558, 2, 131072, 786559, 2, 131072, 786560, 2, 131072, 786561, 2, 131072, 786562, 2, 131072, 786563, 2, 131072, 786564, 2, 131072, 786565, 2, 131072, 786566, 2, 131072, 786567, 2, 131072, 786568, 2, 131072, 786569, 2, 131072, 786570, 2, 131072, 786571, 2, 131072, 786572, 2, 131072, 852004, 1, 131073, 852005, 1, 131073, 852006, 1, 131073, 852007, 1, 131073, 852008, 1, 131073, 852009, 1, 131073, 852010, 1, 131073, 852011, 1, 131073, 852012, 1, 131073, 852013, 1, 131073, 852021, 1, 131073, 852022, 1, 131073, 852023, 1, 131073, 852024, 1, 131073, 852025, 1, 131073, 852026, 1, 131073, 852027, 1, 131073, 852028, 1, 131073, 852029, 1, 131073, 852030, 1, 131073, 852065, 1, 131073, 852066, 1, 131073, 852067, 1, 131073, 852068, 1, 131073, 852069, 1, 131073, 852070, 1, 131073, 852071, 1, 131073, 852072, 1, 131073, 852073, 1, 131073, 852074, 1, 131073, 852075, 2, 131072, 852076, 2, 131072, 852077, 2, 131072, 852078, 2, 131072, 852079, 2, 131072, 852088, 2, 131072, 852089, 2, 131072, 852090, 2, 131072, 852091, 2, 131072, 852092, 2, 131072, 852093, 2, 131072, 852094, 2, 131072, 852095, 2, 131072, 852096, 2, 131072, 852097, 2, 131072, 852098, 2, 131072, 852099, 2, 131072, 852100, 2, 131072, 852101, 2, 131072, 852102, 2, 131072, 852103, 2, 131072, 852104, 2, 131072, 852105, 2, 131072, 852106, 2, 131072, 852107, 2, 131072, 852108, 2, 131072, 917601, 1, 131073, 917602, 1, 131073, 917603, 1, 131073, 917604, 1, 131073, 917605, 1, 131073, 917606, 1, 131073, 917607, 1, 131073, 917608, 1, 131073, 917609, 1, 131073, 917610, 1, 131073, 917611, 2, 131072, 917612, 2, 131072, 917613, 2, 131072, 917614, 2, 131072, 917615, 2, 131072, 917624, 2, 131072, 917625, 2, 131072, 917626, 2, 131072, 917627, 2, 131072, 917628, 2, 131072, 917629, 2, 131072, 917630, 2, 131072, 917631, 2, 131072, 917632, 2, 131072, 917633, 2, 131072, 917634, 2, 131072, 917635, 2, 131072, 917636, 2, 131072, 917637, 2, 131072, 917638, 2, 131072, 917639, 2, 131072, 917640, 2, 131072, 917641, 2, 131072, 917642, 2, 131072, 917643, 2, 131072, 917644, 2, 131072, 983126, 1, 131073, 983137, 1, 131073, 983138, 1, 131073, 983139, 1, 131073, 983140, 1, 131073, 983141, 1, 131073, 983142, 1, 131073, 983143, 1, 131073, 983144, 1, 131073, 983145, 1, 131073, 983146, 1, 131073, 983147, 2, 131072, 983148, 2, 131072, 983149, 2, 131072, 983150, 2, 131072, 983151, 2, 131072, 983160, 2, 131072, 983161, 2, 131072, 983162, 2, 131072, 983163, 2, 131072, 983164, 2, 131072, 983165, 2, 131072, 983166, 2, 131072, 983167, 2, 131072, 983168, 2, 131072, 983169, 2, 131072, 983170, 2, 131072, 983171, 2, 131072, 983172, 2, 131072, 983173, 2, 131072, 983174, 2, 131072, 983175, 2, 131072, 983176, 2, 131072, 983177, 2, 131072, 983178, 2, 131072, 983179, 2, 131072, 983180, 2, 131072, 1048673, 1, 131073, 1048674, 1, 131073, 1048675, 1, 131073, 1048676, 1, 131073, 1048677, 1, 131073, 1048678, 1, 131073, 1048679, 1, 131073, 1048680, 1, 131073, 1048681, 1, 131073, 1048682, 1, 131073, 1048683, 2, 131072, 1048684, 2, 131072, 1048685, 2, 131072, 1048686, 2, 131072, 1048687, 2, 131072, 1048696, 2, 131072, 1048697, 2, 131072, 1048698, 2, 131072, 1048699, 2, 131072, 1048700, 2, 131072, 1048701, 2, 131072, 1048702, 2, 131072, 1048703, 2, 131072, 1048704, 2, 131072, 1048705, 2, 131072, 1048706, 2, 131072, 1048707, 2, 131072, 1048708, 2, 131072, 1048709, 2, 131072, 1048710, 2, 131072, 1048711, 2, 131072, 1048712, 2, 131072, 1048713, 2, 131072, 1048714, 2, 131072, 1048715, 2, 131072, 1048716, 2, 131072, 1114209, 1, 131073, 1114210, 1, 131073, 1114211, 1, 131073, 1114212, 1, 131073, 1114213, 1, 131073, 1114214, 1, 131073, 1114215, 1, 131073, 1114216, 1, 131073, 1114217, 1, 131073, 1114218, 2, 131072, 1114219, 1, 131073, 1114220, 2, 131072, 1114221, 2, 131072, 1114222, 2, 131072, 1114223, 2, 131072, 1114232, 2, 131072, 1114233, 2, 131072, 1114234, 2, 131072, 1114235, 2, 131072, 1114236, 1, 131073, 1114237, 1, 131073, 1114238, 1, 131073, 1114239, 1, 131073, 1114240, 1, 131073, 1114241, 1, 131073, 1114242, 1, 131073, 1114243, 1, 131073, 1114244, 1, 131073, 1114245, 1, 131073, 1114246, 1, 131073, 1114247, 1, 131073, 1114248, 1, 131073, 1114249, 1, 131073, 1114250, 1, 131073, 1114251, 1, 131073, 1114252, 1, 131073, 1179745, 1, 131073, 1179746, 1, 131073, 1179747, 1, 131073, 1179748, 1, 131073, 1179749, 1, 131073, 1179750, 1, 131073, 1179751, 1, 131073, 1179752, 1, 131073, 1179753, 1, 131073, 1179754, 2, 131072, 1179755, 1, 131073, 1179756, 2, 131072, 1179757, 2, 131072, 1179758, 2, 131072, 1179759, 2, 131072, 1179768, 2, 131072, 1179769, 2, 131072, 1179770, 2, 131072, 1179771, 2, 131072, 1179772, 2, 131072, 1179773, 1, 131073, 1179774, 1, 131073, 1179775, 1, 131073, 1179776, 1, 131073, 1179777, 1, 131073, 1179778, 1, 131073, 1179779, 1, 131073, 1179780, 1, 131073, 1179781, 1, 131073, 1179782, 1, 131073, 1179783, 1, 131073, 1179784, 1, 131073, 1179785, 1, 131073, 1179786, 1, 131073, 1179787, 1, 131073, 1179788, 1, 131073, 1245281, 1, 131073, 1245282, 1, 131073, 1245283, 1, 131073, 1245284, 1, 131073, 1245285, 1, 131073, 1245286, 1, 131073, 1245287, 1, 131073, 1245288, 1, 131073, 1245289, 1, 131073, 1245290, 2, 131072, 1245291, 1, 131073, 1245292, 2, 131072, 1245293, 2, 131072, 1245294, 2, 131072, 1245295, 2, 131072, 1245304, 2, 131072, 1245305, 2, 131072, 1245306, 2, 131072, 1245307, 1, 131073, 1245308, 1, 131073, 1245309, 1, 131073, 1245310, 1, 131073, 1245311, 1, 131073, 1245312, 1, 131073, 1245313, 1, 131073, 1245314, 1, 131073, 1245315, 1, 131073, 1245316, 1, 131073, 1245317, 1, 131073, 1245318, 1, 131073, 1245319, 1, 131073, 1245320, 1, 131073, 1245321, 1, 131073, 1245322, 1, 131073, 1245323, 1, 131073, 1245324, 1, 131073, 1310817, 1, 131073, 1310818, 1, 131073, 1310819, 1, 131073, 1310820, 1, 131073, 1310821, 1, 131073, 1310822, 1, 131073, 1310823, 1, 131073, 1310824, 1, 131073, 1310825, 1, 131073, 1310826, 1, 131073, 1310827, 1, 131073, 1310828, 2, 131072, 1310829, 2, 131072, 1310830, 2, 131072, 1310831, 2, 131072, 1310840, 1, 131073, 1310841, 1, 131073, 1310842, 1, 131073, 1310843, 1, 131073, 1310844, 1, 131073, 1310845, 1, 131073, 1310846, 1, 131073, 1310847, 1, 131073, 1310848, 1, 131073, 1310849, 1, 131073, 1310850, 1, 131073, 1310851, 1, 131073, 1310852, 1, 131073, 1310853, 1, 131073, 1310854, 1, 131073, 1310855, 1, 131073, 1310856, 1, 131073, 1310857, 1, 131073, 1310858, 1, 131073, 1310859, 1, 131073, 1310860, 1, 131073, 1376353, 1, 131073, 1376354, 1, 131073, 1376355, 1, 131073, 1376356, 1, 131073, 1376357, 1, 131073, 1376358, 1, 131073, 1376359, 1, 131073, 1376360, 1, 131073, 1376361, 1, 131073, 1376362, 1, 131073, 1376363, 1, 131073, 1376364, 1, 131073, 1376365, 1, 131073, 1376366, 1, 131073, 1376367, 1, 131073, 1376376, 1, 131073, 1376377, 1, 131073, 1376378, 1, 131073, 1376379, 1, 131073, 1376380, 1, 131073, 1376381, 1, 131073, 1376382, 1, 131073, 1376383, 1, 131073, 1376384, 1, 131073, 1376385, 1, 131073, 1376386, 1, 131073, 1376387, 1, 131073, 1376388, 1, 131073, 1376389, 1, 131073, 1376390, 1, 131073, 1376391, 1, 131073, 1376392, 1, 131073, 1376393, 1, 131073, 1376394, 1, 131073, 1376395, 1, 131073, 1376396, 1, 131073 )
